<!DOCTYPE svg PUBLIC "-//W3C//DTD SVG 20010904//EN" "http://www.w3.org/TR/2001/REC-SVG-20010904/DTD/svg10.dtd">
<svg version="1.0" xmlns="http://www.w3.org/2000/svg" width="723px" height="695px" viewBox="0 0 7230 6950" preserveAspectRatio="xMidYMid meet">
<g id="layer101" fill="#0d7e6d" stroke="none">
 <path d="M3440 6339 c-143 -14 -250 -32 -250 -41 0 -5 -11 -6 -25 -2 -16 4 -34 0 -50 -10 -13 -9 -30 -13 -38 -10 -29 11 -340 -83 -330 -99 3 -6 1 -7 -4 -4 -6 4 -30 1 -54 -7 -69 -21 -269 -118 -263 -127 3 -5 -2 -6 -10 -3 -11 4 -16 0 -16 -10 0 -10 -8 -15 -22 -14 -39 2 -252 -127 -241 -145 4 -6 0 -8 -9 -5 -15 6 -87 -45 -121 -85 -10 -12 -15 -15 -11 -7 8 14 -101 -67 -141 -105 -12 -11 -41 -36 -65 -55 -24 -19 -58 -51 -74 -70 -17 -19 -60 -65 -96 -102 -84 -87 -140 -156 -140 -173 0 -8 -5 -17 -12 -21 -7 -5 -9 -2 -4 7 15 30 -48 -51 -124 -158 -44 -61 -80 -121 -80 -133 0 -11 -4 -19 -8 -16 -7 4 -107 -153 -121 -189 -2 -5 -15 -35 -29 -65 -13 -30 -25 -62 -25 -70 0 -8 -9 -25 -20 -37 -11 -13 -17 -29 -13 -38 3 -9 2 -14 -2 -11 -11 7 -55 -99 -56 -134 -1 -16 -4 -26 -7 -24 -10 6 -42 -87 -43 -128 -1 -20 -4 -34 -7 -32 -8 5 -30 -96 -23 -107 3 -5 2 -15 -3 -21 -4 -7 -8 -17 -8 -23 -1 -5 -7 -23 -13 -39 -22 -51 -57 -329 -48 -383 2 -18 1 -33 -5 -33 -5 0 -9 -67 -9 -160 0 -88 3 -160 8 -160 4 0 7 -42 8 -93 1 -90 41 -358 70 -467 62 -236 189 -570 216 -570 5 0 7 -4 4 -9 -12 -18 119 -255 151 -274 7 -4 13 -16 13 -25 0 -10 25 -52 55 -94 30 -42 55 -81 55 -87 0 -5 8 -16 18 -23 10 -7 38 -40 63 -73 59 -81 346 -368 359 -360 5 3 10 1 10 -6 0 -14 46 -59 61 -59 5 0 9 -7 9 -15 0 -8 7 -15 16 -15 9 0 34 -16 57 -35 22 -19 45 -35 49 -35 5 0 6 -5 3 -10 -4 -6 -3 -9 2 -8 4 1 19 -5 33 -13 14 -9 65 -42 113 -73 49 -31 92 -54 98 -51 5 4 9 0 9 -7 1 -14 76 -54 97 -52 7 1 11 -2 8 -5 -5 -9 186 -101 209 -101 9 0 16 -3 16 -8 0 -4 19 -13 43 -20 23 -8 76 -26 117 -42 109 -41 226 -71 246 -63 12 4 15 3 10 -5 -7 -12 -1 -13 59 -17 11 -1 30 -7 43 -14 13 -7 40 -14 60 -15 20 -2 89 -11 152 -20 63 -10 136 -16 163 -14 26 2 47 0 47 -4 0 -21 432 -4 600 23 41 7 92 13 113 13 20 1 37 4 37 7 0 8 41 22 58 20 28 -4 151 32 145 42 -3 6 -1 7 5 3 19 -12 316 82 337 107 6 7 15 12 20 13 18 1 70 17 75 23 7 9 159 83 199 97 19 7 37 16 40 21 5 7 38 29 106 71 87 53 135 89 135 99 0 7 7 13 16 13 9 0 47 25 85 55 37 30 70 55 74 55 5 0 115 101 189 176 85 83 173 183 231 260 33 43 62 81 65 84 3 3 21 28 40 55 19 28 42 59 51 70 9 11 25 36 36 55 10 19 32 55 48 80 16 25 29 47 30 50 0 3 17 38 38 78 21 39 35 77 31 84 -4 6 -3 8 4 4 6 -4 18 9 27 31 9 21 23 53 31 71 8 18 14 39 14 47 0 7 3 15 8 17 9 4 102 278 102 302 0 9 4 24 9 34 10 19 29 93 42 162 30 152 61 442 47 434 -4 -3 -8 7 -8 23 0 22 2 25 11 13 16 -23 4 317 -17 488 -10 77 -21 139 -25 137 -4 -3 -5 3 -3 13 7 23 -42 246 -54 250 -5 1 -8 11 -5 22 5 19 -13 84 -49 175 -11 28 -26 66 -33 85 -31 82 -40 98 -49 93 -5 -3 -6 -1 -2 5 10 17 -4 62 -21 62 -8 0 -11 4 -8 10 8 13 -134 284 -151 288 -8 2 -12 7 -9 12 6 9 -52 103 -104 169 -24 30 -31 46 -26 63 6 18 5 21 -5 11 -11 -10 -19 -5 -39 21 -97 123 -134 165 -143 159 -7 -3 -8 -1 -4 6 5 7 -24 43 -73 92 -45 45 -81 83 -81 86 0 8 -28 33 -37 33 -4 0 -36 25 -70 55 -59 53 -82 68 -67 43 4 -7 3 -8 -5 -4 -6 4 -9 11 -6 15 6 11 -14 29 -116 101 -46 33 -92 65 -102 72 -10 7 -33 22 -52 33 -152 89 -194 113 -225 128 -19 10 -42 22 -50 26 -8 5 -51 24 -95 42 -44 18 -84 36 -90 41 -5 4 -17 8 -27 8 -10 0 -18 4 -18 9 0 5 -15 12 -32 16 -18 4 -58 15 -88 25 -151 50 -227 71 -353 95 -77 15 -151 24 -165 21 -19 -5 -23 -4 -13 3 13 8 -84 18 -184 19 -16 1 -79 4 -138 9 -60 4 -114 5 -120 1 -7 -4 -48 -7 -92 -6 l-80 2 80 6 80 6 -85 1 c-47 0 -123 -3 -170 -8z"/>
 </g>
<g id="layer102" fill="#0c8470" stroke="none">
 <path d="M3500 6340 c-14 -4 22 -5 80 -2 58 2 107 6 109 8 8 8 -165 2 -189 -6z"/>
 <path d="M3707 6338 c-7 -5 -1 -8 14 -8 26 0 44 -21 40 -46 0 -6 6 -17 14 -24 8 -7 15 -19 15 -26 0 -16 17 -19 22 -4 2 6 9 5 18 -1 11 -8 12 -12 2 -16 -18 -7 -4 -23 15 -16 12 5 15 2 10 -10 -4 -10 -1 -17 6 -17 14 0 43 -40 39 -54 -2 -5 4 -6 11 -3 10 4 21 -8 32 -34 14 -30 22 -38 37 -33 13 4 18 0 18 -14 0 -12 9 -22 21 -25 16 -4 20 -11 16 -27 -4 -16 -2 -20 8 -16 10 3 12 0 8 -11 -5 -12 -2 -15 9 -11 9 4 21 -2 29 -14 8 -12 22 -28 33 -37 41 -35 66 -62 66 -73 0 -5 11 -19 25 -30 14 -11 25 -26 25 -34 0 -8 5 -12 10 -9 6 3 10 2 10 -4 0 -5 -4 -13 -10 -16 -5 -3 -10 -12 -10 -18 0 -8 3 -8 9 1 7 11 17 9 49 -12 25 -15 39 -31 36 -39 -3 -8 6 -18 21 -25 14 -7 32 -27 40 -45 8 -17 14 -28 15 -22 0 5 18 -10 41 -35 23 -25 70 -76 105 -114 36 -39 63 -75 60 -82 -6 -14 28 -47 37 -37 4 4 13 -8 19 -25 7 -18 18 -32 26 -32 7 0 10 -4 7 -10 -3 -5 6 -12 20 -16 30 -7 31 -12 8 -31 -10 -7 -13 -13 -8 -12 28 4 55 -3 69 -17 18 -18 11 -38 -10 -30 -8 3 -13 0 -11 -7 1 -7 -8 -11 -23 -9 -17 1 -21 -1 -12 -7 8 -4 13 -11 13 -15 -3 -18 0 -18 12 -3 6 9 24 18 40 21 22 4 27 1 27 -15 0 -11 5 -17 10 -14 6 3 10 -1 10 -10 0 -10 6 -15 13 -13 15 6 45 -24 39 -40 -2 -7 5 -12 15 -12 11 0 24 -5 31 -12 27 -27 8 -24 -62 10 -41 20 -72 40 -69 46 4 5 -1 7 -10 3 -11 -4 -14 -2 -10 9 3 7 1 14 -5 14 -6 0 -12 -5 -14 -12 -3 -9 -14 -7 -40 5 -20 9 -43 17 -51 17 -9 0 -19 5 -22 10 -3 6 -1 10 4 10 6 0 11 5 11 10 0 6 -9 10 -20 10 -11 0 -20 -5 -20 -11 0 -7 -7 -8 -17 -4 -78 30 -326 83 -503 106 -128 17 -592 18 -685 1 -286 -53 -423 -90 -528 -144 -10 -5 -22 -6 -27 -3 -5 3 -12 0 -17 -7 -4 -7 -30 -24 -58 -38 -94 -47 -250 -154 -321 -222 -39 -37 -74 -66 -77 -63 -4 3 -5 2 -2 -2 6 -8 -86 -108 -100 -108 -5 -1 -9 -7 -7 -14 4 -17 -16 -41 -31 -37 -7 1 -9 1 -5 -1 10 -6 -2 -33 -29 -69 -13 -17 -23 -34 -23 -37 0 -15 -58 -96 -64 -90 -4 4 -4 -1 0 -11 5 -13 4 -17 -4 -12 -8 5 -10 1 -5 -10 3 -10 2 -15 -3 -12 -5 4 -10 -4 -10 -15 -1 -12 -18 -67 -38 -122 -19 -55 -43 -133 -52 -172 -11 -52 -20 -73 -31 -73 -12 0 -13 -3 -4 -14 11 -13 4 -106 -8 -106 -3 0 -6 -19 -6 -42 0 -24 -2 -83 -4 -133 l-4 -90 -8 90 c-4 50 -5 106 -2 125 3 20 2 31 -3 27 -11 -10 -16 -295 -7 -392 6 -59 8 -64 13 -35 4 25 8 8 13 -63 4 -54 5 -102 2 -108 -4 -5 -1 -9 4 -9 6 0 11 -10 11 -22 0 -45 57 -263 95 -368 14 -37 14 -49 4 -65 -11 -18 -10 -18 3 -7 13 10 17 10 22 -3 3 -8 3 -23 0 -32 -5 -15 -4 -15 4 -3 9 12 13 9 22 -15 8 -21 8 -31 1 -33 -6 -2 -11 -11 -11 -19 0 -12 3 -13 14 -4 11 9 17 6 31 -15 9 -15 18 -37 19 -49 0 -13 4 -21 8 -19 10 6 80 -105 73 -116 -4 -6 -1 -9 6 -8 7 2 23 -13 36 -32 13 -19 50 -64 81 -100 31 -35 56 -68 55 -72 -2 -4 4 -8 12 -8 8 0 15 -5 15 -10 0 -7 -6 -7 -19 -1 -14 8 -23 6 -37 -11 -19 -21 -19 -21 6 -14 59 16 65 15 97 -16 18 -17 30 -35 27 -40 -3 -5 -1 -7 4 -6 6 2 10 -1 10 -7 0 -5 10 -12 21 -16 11 -5 25 -18 32 -30 11 -21 9 -21 -37 6 -27 15 -53 30 -57 32 -4 3 -4 10 2 17 7 8 0 11 -27 8 -23 -2 -45 3 -57 12 -18 14 -18 16 -2 17 9 1 22 3 27 4 6 1 13 3 18 4 4 1 0 5 -7 10 -9 6 -22 6 -34 -1 -24 -12 -81 -2 -97 17 -11 13 -10 14 6 9 15 -5 16 -4 4 4 -8 6 -18 8 -23 5 -17 -10 -56 7 -51 22 5 11 -1 15 -22 15 -26 0 -142 53 -154 70 -3 4 -20 11 -38 15 -24 5 -32 11 -28 22 4 10 2 13 -7 10 -8 -3 -21 3 -30 14 -9 10 -35 22 -57 25 -22 4 -40 10 -40 15 0 4 -18 13 -40 19 -22 6 -40 13 -40 16 0 4 8 3 18 -1 13 -5 14 -4 5 6 -13 13 -41 21 -80 23 -13 1 -23 4 -23 9 0 4 -5 7 -11 7 -12 0 -44 30 -32 30 10 1 -27 23 -47 28 -8 2 -27 5 -42 6 -16 0 -28 6 -28 13 0 7 -18 17 -40 23 -22 6 -40 13 -40 16 0 4 8 3 18 -1 13 -5 14 -4 5 6 -14 14 -34 20 -75 21 -17 1 -28 7 -28 15 0 8 -5 11 -10 8 -6 -3 -17 1 -26 9 -8 9 -12 16 -7 16 10 1 -27 23 -47 28 -8 2 -27 5 -42 6 -16 0 -28 7 -28 14 0 6 -4 13 -10 13 -41 5 -69 20 -64 34 4 9 -2 13 -20 11 -14 -2 -26 1 -26 6 0 5 -9 6 -20 3 -11 -4 -20 -2 -20 4 0 6 -9 11 -20 11 -11 0 -20 7 -20 15 0 18 -65 49 -81 39 -8 -4 -9 -3 -5 4 5 8 -1 11 -16 9 -18 -1 -25 5 -35 33 -9 27 -12 30 -12 13 -1 -30 -17 -30 -25 0 -7 21 -8 21 -15 3 -7 -19 -8 -18 -14 5 -4 13 -7 35 -8 49 0 14 -3 19 -6 12 -6 -15 21 -177 43 -262 61 -231 189 -570 216 -570 5 0 7 -4 4 -9 -12 -18 119 -255 151 -274 7 -4 13 -16 13 -25 0 -10 25 -52 55 -94 30 -42 55 -81 55 -87 0 -5 8 -16 18 -23 10 -7 38 -40 63 -73 59 -81 346 -368 359 -360 5 3 10 1 10 -6 0 -14 46 -59 61 -59 5 0 9 -7 9 -15 0 -8 7 -15 16 -15 9 0 34 -16 57 -35 22 -19 45 -35 49 -35 5 0 6 -5 3 -10 -4 -6 -3 -9 2 -8 4 1 19 -5 33 -13 14 -9 65 -42 113 -73 49 -31 92 -54 98 -51 5 4 9 0 9 -7 1 -14 76 -54 97 -52 7 1 11 -2 8 -5 -5 -9 186 -101 209 -101 9 0 16 -3 16 -8 0 -4 19 -13 43 -20 23 -8 76 -26 117 -42 109 -41 226 -71 246 -63 12 4 15 3 10 -5 -7 -12 -1 -13 59 -17 11 -1 30 -7 43 -14 13 -7 40 -14 60 -15 20 -2 89 -11 152 -20 63 -10 136 -16 163 -14 26 2 47 0 47 -4 0 -21 432 -4 600 23 41 7 92 13 113 13 20 1 37 4 37 7 0 8 41 22 58 20 28 -4 151 32 145 42 -3 6 -1 7 5 3 19 -12 316 82 337 107 6 7 15 12 20 13 18 1 70 17 75 23 7 9 159 83 199 97 19 7 37 16 40 21 5 7 38 29 106 71 87 53 135 89 135 99 0 7 7 13 16 13 9 0 47 25 85 55 37 30 70 55 74 55 5 0 115 101 189 176 85 83 173 183 231 260 33 43 62 81 65 84 3 3 21 28 40 55 19 28 42 59 51 70 9 11 25 36 36 55 10 19 32 55 48 80 16 25 29 47 30 50 0 3 17 38 38 78 21 39 35 77 31 84 -4 6 -3 8 4 4 6 -4 18 9 27 31 9 21 23 53 31 71 8 18 14 39 14 47 0 7 3 15 8 17 9 4 102 278 102 302 0 9 4 24 9 34 10 19 29 93 42 162 30 152 61 442 47 434 -4 -3 -8 7 -8 23 0 22 2 25 11 13 16 -23 4 317 -17 488 -10 77 -21 139 -25 137 -4 -3 -5 3 -3 13 7 23 -42 246 -54 250 -5 1 -8 11 -5 22 5 19 -13 84 -49 175 -11 28 -26 66 -33 85 -31 82 -40 98 -49 93 -5 -3 -6 -1 -2 5 10 17 -4 62 -21 62 -8 0 -11 4 -8 10 8 13 -134 284 -151 288 -8 2 -12 7 -9 12 6 9 -52 103 -104 169 -24 30 -31 46 -26 63 6 18 5 21 -5 11 -11 -10 -19 -5 -39 21 -97 123 -134 165 -143 159 -7 -3 -8 -1 -4 6 5 7 -24 43 -73 92 -45 45 -81 83 -81 86 0 8 -28 33 -37 33 -4 0 -36 25 -70 55 -59 53 -82 68 -67 43 4 -7 3 -8 -5 -4 -6 4 -9 11 -6 15 6 11 -14 29 -116 101 -46 33 -92 65 -102 72 -10 7 -33 22 -52 33 -152 89 -194 113 -225 128 -19 10 -42 22 -50 26 -8 5 -51 24 -95 42 -44 18 -84 36 -90 41 -5 4 -17 8 -27 8 -10 0 -18 4 -18 9 0 5 -15 12 -32 16 -18 4 -58 15 -88 25 -151 50 -227 71 -353 95 -77 15 -151 24 -165 21 -19 -5 -23 -4 -13 3 13 8 -84 18 -184 19 -16 1 -79 4 -138 9 -60 4 -114 5 -120 1z m323 -1785 c25 -2 62 -8 84 -15 31 -10 35 -13 20 -19 -18 -7 -18 -7 0 -14 11 -5 21 -3 25 4 5 8 15 8 37 1 27 -10 29 -14 28 -58 -1 -26 -3 -141 -5 -257 -3 -207 -3 -208 -9 -75 -5 130 -5 132 -13 65 -4 -38 -7 -123 -8 -187 -1 -94 -4 -118 -15 -118 -8 0 -14 -7 -14 -15 0 -11 7 -14 24 -9 13 3 27 1 30 -4 11 -18 -108 -24 -397 -20 l-277 3 -2 -130 -2 -130 -6 110 c-4 73 -7 5 -7 -197 -1 -208 2 -308 9 -308 6 0 8 8 6 18 -5 16 17 17 366 14 255 -2 366 -6 354 -13 -10 -5 -18 -18 -18 -27 0 -15 2 -15 10 -2 9 13 11 13 19 1 5 -8 16 -16 25 -17 24 -3 49 -33 42 -50 -3 -8 -2 -13 3 -9 5 3 21 -10 36 -27 68 -84 81 -98 93 -98 6 0 12 -11 12 -25 0 -14 8 -29 20 -35 11 -6 18 -15 15 -21 -4 -5 -2 -9 3 -9 5 0 14 -11 20 -25 6 -14 17 -24 24 -23 7 2 13 -1 13 -7 3 -24 29 -65 42 -65 8 0 11 -4 8 -10 -3 -5 -1 -11 4 -11 6 -1 15 -2 20 -3 6 0 25 -23 43 -51 18 -27 37 -52 42 -54 5 -2 22 -17 39 -32 16 -16 34 -29 39 -29 20 0 -6 -22 -50 -42 -25 -12 -63 -21 -84 -21 -21 1 -38 -2 -38 -8 0 -5 5 -9 11 -9 5 0 7 -4 4 -10 -3 -5 -11 -10 -16 -10 -6 0 -7 5 -4 10 3 6 1 10 -4 10 -6 0 -11 -5 -11 -11 0 -6 -8 -8 -18 -4 -11 3 -32 -1 -48 -10 -16 -8 -35 -15 -41 -15 -7 0 -13 -5 -13 -11 0 -7 -12 -8 -32 -4 -25 5 -29 4 -18 -4 18 -13 6 -14 -80 -12 -52 1 -54 1 -31 -12 l24 -14 -36 -5 c-20 -2 -39 1 -41 7 -2 5 -5 3 -5 -6 -2 -43 -476 -61 -658 -25 -51 10 -93 22 -93 27 0 5 8 9 18 10 11 1 8 4 -8 8 -14 5 -29 4 -35 -1 -5 -4 -15 -8 -22 -8 -24 0 -143 61 -138 71 4 5 -1 6 -9 3 -55 -21 -403 318 -382 373 3 8 2 11 -4 8 -10 -6 -45 53 -36 62 3 4 0 11 -8 17 -16 12 -66 136 -66 161 0 9 -7 40 -15 68 -38 137 -38 454 0 637 21 99 25 111 36 105 5 -3 6 1 3 10 -17 43 132 332 165 320 8 -3 11 0 8 9 -4 11 -1 13 10 9 11 -5 14 -3 9 6 -10 16 38 67 129 135 75 56 111 75 102 54 -3 -9 5 -13 23 -13 30 0 31 25 1 25 -14 1 -14 2 2 11 9 5 23 7 30 3 6 -4 9 -4 5 1 -7 7 56 45 75 45 5 0 16 -7 24 -16 13 -12 18 -13 24 -3 4 7 5 17 3 21 -4 6 23 5 84 -3 4 -1 19 -1 35 0 38 1 34 19 -5 23 -51 6 273 21 331 16 33 -3 51 -1 51 6 0 7 3 7 8 1 4 -5 27 -11 52 -12z"/>
 <path d="M4160 4485 c0 -10 -10 -15 -27 -15 -24 -1 -26 -2 -10 -11 13 -7 26 -7 47 3 34 15 37 23 14 32 -22 9 -24 8 -24 -9z"/>
 <path d="M3511 4474 c-7 -8 -10 -18 -6 -22 4 -4 10 -1 12 6 3 6 14 12 24 12 11 0 17 5 14 10 -9 14 -28 12 -44 -6z"/>
 <path d="M4040 4480 c14 -4 32 -8 40 -9 13 -1 13 0 0 9 -8 5 -26 9 -40 9 l-25 -1 25 -8z"/>
 <path d="M4000 4420 c0 -5 12 -10 26 -10 14 0 23 4 19 10 -3 6 -15 10 -26 10 -10 0 -19 -4 -19 -10z"/>
 <path d="M4147 4413 c7 -5 14 -42 16 -88 l3 -80 0 84 c-1 66 -4 85 -16 88 -11 3 -11 2 -3 -4z"/>
 <path d="M3128 4334 c-4 -3 0 -13 8 -22 14 -13 17 -13 32 1 19 20 9 35 -12 18 -10 -8 -15 -9 -18 -1 -2 6 -6 8 -10 4z"/>
 <path d="M3095 4269 c-12 -19 5 -23 22 -6 16 16 16 17 1 17 -9 0 -20 -5 -23 -11z"/>
 <path d="M3001 4194 c-12 -15 -21 -32 -21 -38 1 -11 24 15 41 47 14 25 3 21 -20 -9z"/>
 <path d="M3011 4149 c-13 -17 -21 -32 -19 -34 8 -8 48 35 48 50 0 20 -1 19 -29 -16z"/>
 <path d="M2988 4063 l17 -36 3 28 c2 15 -2 32 -10 36 -25 16 -28 9 -10 -28z"/>
 <path d="M2929 4083 c0 -5 -2 -18 -3 -30 -1 -12 2 -24 8 -26 7 -3 11 9 11 29 0 19 -3 34 -7 34 -5 0 -8 -3 -9 -7z"/>
 <path d="M2924 4012 c3 -6 2 -13 -4 -17 -5 -3 -10 -13 -10 -22 0 -13 3 -13 15 -3 18 15 19 36 3 46 -6 4 -8 3 -4 -4z"/>
 <path d="M3584 3919 c26 -6 43 -6 50 1 7 7 -6 10 -39 9 l-50 -1 39 -9z"/>
 <path d="M3520 3855 c0 -15 4 -24 10 -20 6 3 10 12 10 20 0 8 -4 17 -10 20 -6 4 -10 -5 -10 -20z"/>
 <path d="M2834 3795 c-8 -20 4 -83 16 -90 6 -4 8 8 4 32 -4 21 -7 46 -6 56 1 21 -7 22 -14 2z"/>
 <path d="M2811 3638 c-1 -16 4 -28 9 -28 12 0 12 8 0 35 -8 18 -9 17 -9 -7z"/>
 <path d="M2810 3408 c0 -32 3 -39 10 -28 13 20 13 70 0 70 -5 0 -10 -19 -10 -42z"/>
 <path d="M2850 3185 c-7 -8 -8 -15 -2 -15 5 0 15 7 22 15 7 8 8 15 2 15 -5 0 -15 -7 -22 -15z"/>
 <path d="M3621 3192 c-7 -5 -9 -11 -5 -14 5 -2 131 -1 279 2 l270 6 -230 2 c-126 1 -246 5 -265 7 -19 3 -41 2 -49 -3z"/>
 <path d="M3535 3140 c-14 -6 -4 -9 34 -9 30 -1 52 1 50 3 -11 9 -66 13 -84 6z"/>
 <path d="M2858 3082 c5 -9 12 -24 15 -32 3 -9 6 -4 6 11 1 15 -6 29 -14 33 -12 4 -13 2 -7 -12z"/>
 <path d="M2920 2954 c0 -13 3 -14 13 -5 8 6 18 7 22 3 5 -4 5 -1 1 6 -10 18 -36 15 -36 -4z"/>
 <path d="M2981 2839 c-11 -18 -11 -23 1 -30 7 -5 16 -9 19 -9 3 0 13 -15 22 -32 8 -18 16 -26 16 -17 1 9 -10 28 -23 42 -15 16 -20 30 -15 39 5 7 9 16 9 21 0 14 -15 7 -29 -14z"/>
 <path d="M4487 2833 c-10 -9 -9 -23 2 -23 5 0 11 7 15 15 5 15 -5 20 -17 8z"/>
 <path d="M3069 2722 c-8 -9 -10 -14 -5 -10 12 10 49 -28 41 -44 -3 -7 0 -5 9 6 12 14 12 22 3 37 -17 27 -34 30 -48 11z"/>
 <path d="M3144 2621 c11 -11 23 -21 28 -21 14 0 -1 19 -25 31 -22 12 -22 12 -3 -10z"/>
 <path d="M3260 2601 c0 -16 29 -33 51 -29 22 3 22 4 5 21 -18 18 -56 24 -56 8z"/>
 <path d="M4725 2562 c-5 -4 -16 -14 -23 -23 -11 -14 -9 -16 13 -11 16 3 24 10 21 18 -3 7 0 15 7 18 7 2 8 5 2 5 -5 0 -14 -3 -20 -7z"/>
 <path d="M3267 2543 c-12 -12 -7 -19 15 -20 13 -1 18 1 13 5 -6 4 -13 11 -16 15 -3 4 -9 4 -12 0z"/>
 <path d="M3310 2500 c0 -5 9 -10 20 -10 11 0 23 -7 26 -15 7 -16 34 -21 34 -6 0 5 8 12 18 14 9 2 3 3 -15 1 -20 -1 -33 3 -37 12 -6 16 -46 19 -46 4z"/>
 <path d="M3628 2483 c28 -2 52 -8 52 -14 0 -5 12 -8 28 -8 20 1 22 2 7 6 -11 3 -24 9 -29 14 -6 5 -33 8 -60 7 l-51 -2 53 -3z"/>
 <path d="M3515 2460 c-3 -5 3 -10 15 -10 12 0 18 5 15 10 -3 6 -10 10 -15 10 -5 0 -12 -4 -15 -10z"/>
 <path d="M4430 2460 c0 -12 8 -12 35 0 18 8 17 9 -7 9 -16 1 -28 -3 -28 -9z"/>
 <path d="M3419 2449 c-10 -6 -10 -9 -1 -9 6 0 13 1 15 2 1 1 12 -4 25 -11 12 -6 22 -8 22 -3 0 15 -46 31 -61 21z"/>
 <path d="M4319 2451 c-3 -8 -51 -14 -129 -18 -90 -5 -114 -9 -87 -14 36 -6 227 8 236 17 3 2 0 9 -6 15 -8 8 -12 7 -14 0z"/>
 <path d="M3645 2400 c3 -5 13 -10 21 -10 8 0 14 5 14 10 0 6 -9 10 -21 10 -11 0 -17 -4 -14 -10z"/>
 <path d="M3686 2385 c-4 -12 3 -15 30 -15 21 0 33 4 29 10 -4 6 -11 8 -16 5 -5 -4 -9 -1 -9 4 0 17 -27 13 -34 -4z"/>
 <path d="M4018 2382 c-10 -2 -18 -8 -18 -13 0 -10 43 -10 80 0 23 7 23 8 -10 12 -19 2 -43 3 -52 1z"/>
 <path d="M3772 2369 c16 -11 145 -12 151 -1 3 4 -33 8 -80 8 -50 1 -79 -2 -71 -7z"/>
 <path d="M3290 6320 c-13 -9 -13 -10 0 -9 8 0 24 4 35 9 l20 9 -20 0 c-11 0 -27 -4 -35 -9z"/>
 <path d="M3318 6302 c-29 -6 -20 -22 12 -22 17 0 30 4 30 9 0 12 -21 18 -42 13z"/>
 <path d="M3040 6275 c-26 -7 -36 -13 -23 -14 12 -1 23 -6 25 -12 2 -7 11 -7 28 0 l25 10 -30 1 -30 2 33 9 c17 5 32 12 32 14 0 7 -7 5 -60 -10z"/>
 <path d="M3175 6270 c-7 -12 2 -12 30 0 19 8 19 9 -2 9 -12 1 -25 -3 -28 -9z"/>
 <path d="M2934 6243 c15 -4 16 -7 5 -14 -10 -6 -4 -9 18 -9 43 0 51 16 12 24 -36 7 -64 6 -35 -1z"/>
 <path d="M3105 6220 c-3 -5 1 -10 9 -10 8 0 18 5 21 10 3 6 -1 10 -9 10 -8 0 -18 -4 -21 -10z"/>
 <path d="M3040 6200 c0 -5 9 -10 19 -10 11 0 23 5 26 10 4 6 -5 10 -19 10 -14 0 -26 -4 -26 -10z"/>
 <path d="M3170 6200 c-12 -8 -11 -10 8 -10 12 0 22 5 22 10 0 13 -11 13 -30 0z"/>
 <path d="M2835 6191 c-6 -5 -21 -11 -35 -14 -21 -4 -20 -4 8 -6 17 0 32 3 32 8 0 5 8 12 18 14 13 4 13 5 2 6 -9 0 -20 -3 -25 -8z"/>
 <path d="M2685 6166 c-56 -21 -248 -112 -215 -102 13 4 178 73 265 112 47 20 16 14 -50 -10z"/>
 <path d="M2620 6116 c0 -8 77 -56 90 -56 5 0 10 5 10 10 0 6 -6 10 -14 10 -8 0 -16 4 -18 10 -1 5 -12 11 -23 13 -11 1 -26 6 -32 10 -7 5 -13 6 -13 3z"/>
 <path d="M2450 6027 c0 -4 5 -5 10 -2 6 3 10 1 10 -4 0 -15 32 -14 53 2 15 10 11 12 -28 12 -25 0 -45 -3 -45 -8z"/>
 <path d="M2325 5995 c-22 -13 -37 -25 -33 -25 9 0 78 41 78 46 0 6 -3 5 -45 -21z"/>
 <path d="M2198 5922 c-37 -25 -65 -48 -63 -50 2 -2 24 10 49 27 49 34 61 38 53 17 -4 -10 0 -12 14 -9 23 6 25 23 3 23 -12 0 -11 5 7 20 44 36 5 19 -63 -28z"/>
 <path d="M2181 5876 c-10 -12 -8 -13 9 -9 25 7 37 23 17 23 -8 0 -20 -6 -26 -14z"/>
 <path d="M2070 5834 c-52 -41 -66 -56 -30 -31 14 9 35 21 47 26 11 6 24 15 28 21 15 24 -2 18 -45 -16z"/>
 <path d="M2240 5860 c0 -5 10 -10 23 -10 18 0 19 2 7 10 -19 13 -30 13 -30 0z"/>
 <path d="M2055 5779 c8 -12 -22 -30 -39 -23 -9 3 -16 1 -16 -5 0 -6 -7 -11 -17 -11 -14 0 -14 3 3 22 18 20 17 20 -13 -2 -35 -25 -42 -36 -18 -26 14 5 19 -5 16 -31 -2 -18 14 -16 29 2 10 12 10 15 0 15 -10 0 -10 3 0 15 10 12 15 13 21 4 5 -9 14 -8 33 5 28 18 35 43 11 43 -8 0 -12 -4 -10 -8z"/>
 <path d="M1900 5703 c-13 -10 -40 -33 -60 -52 -32 -31 -33 -32 -5 -14 17 12 39 30 49 42 25 28 40 27 25 -1 -8 -17 -8 -20 0 -12 10 9 24 54 18 54 -2 0 -14 -8 -27 -17z"/>
 <path d="M1884 5643 c2 -10 6 -17 10 -16 15 3 16 11 2 22 -12 10 -14 9 -12 -6z"/>
 <path d="M1832 5610 c-12 -12 -22 -22 -22 -23 0 -1 16 -2 35 -3 31 -1 36 2 33 19 -4 29 -20 31 -46 7z"/>
 <path d="M1766 5592 c-11 -10 -34 -33 -50 -52 -17 -19 -48 -52 -68 -74 -37 -38 -50 -59 -25 -38 9 8 16 6 24 -8 12 -18 35 -21 50 -6 4 4 1 6 -7 4 -10 -2 -14 4 -13 17 1 11 -3 22 -8 26 -5 3 0 14 12 25 18 15 21 16 17 3 -4 -9 -1 -16 6 -16 7 0 13 6 13 14 0 7 -5 13 -10 13 -5 0 -4 7 3 15 11 13 15 13 23 3 7 -10 8 -9 4 3 -9 27 14 41 34 23 10 -9 24 -14 31 -11 9 4 8 6 -4 6 -22 1 -28 32 -10 54 19 21 4 21 -22 -1z"/>
 <path d="M1743 5487 c-8 -17 -8 -24 0 -24 7 0 13 11 13 24 2 29 0 29 -13 0z"/>
 <path d="M1556 5372 c-13 -20 -31 -44 -40 -51 -9 -8 -22 -24 -27 -35 -7 -14 -2 -11 14 8 l24 28 16 -22 c10 -14 17 -18 22 -10 5 8 11 7 23 -2 14 -12 14 -10 3 10 -6 12 -16 22 -22 22 -6 0 -7 -4 -4 -10 9 -14 -8 -13 -23 2 -14 14 11 48 37 49 11 0 12 2 3 6 -10 4 -9 9 4 24 10 11 12 19 6 19 -7 0 -22 -17 -36 -38z"/>
 <path d="M1734 5385 c-19 -14 -18 -14 4 -15 13 0 22 6 22 15 0 19 -1 19 -26 0z"/>
 <path d="M3628 5293 c12 -2 30 -2 40 0 9 3 -1 5 -23 4 -22 0 -30 -2 -17 -4z"/>
 <path d="M3863 5293 c15 -2 37 -2 50 0 12 2 0 4 -28 4 -27 0 -38 -2 -22 -4z"/>
 <path d="M1434 5223 c-17 -21 -40 -54 -53 -73 -19 -30 -17 -28 17 10 38 42 78 100 69 100 -2 0 -17 -17 -33 -37z"/>
 <path d="M3718 5243 c23 -2 61 -2 85 0 23 2 4 4 -43 4 -47 0 -66 -2 -42 -4z"/>
 <path d="M1500 5229 c0 -6 -7 -8 -16 -5 -8 3 -12 2 -9 -3 3 -6 18 -9 34 -9 25 1 27 3 16 14 -16 17 -25 18 -25 3z"/>
 <path d="M4625 5209 c-27 -3 -38 -7 -23 -7 14 -1 32 -4 40 -7 13 -5 47 11 38 17 -3 2 -27 1 -55 -3z"/>
 <path d="M4300 5200 c34 -11 60 -11 35 0 -11 5 -29 8 -40 8 -16 0 -15 -2 5 -8z"/>
 <path d="M4433 5203 c4 -3 19 -8 34 -9 74 -9 91 -16 86 -35 -5 -17 -2 -18 27 -7 l32 11 -33 14 c-18 7 -41 15 -51 16 -10 2 -21 6 -24 10 -4 4 -23 7 -42 7 -20 0 -32 -3 -29 -7z"/>
 <path d="M2880 5155 c0 -19 30 -19 56 0 18 13 17 14 -18 15 -27 0 -38 -4 -38 -15z"/>
 <path d="M1400 5132 c0 -6 5 -14 11 -17 6 -4 14 -17 19 -29 6 -14 9 -16 9 -5 1 9 -8 26 -19 39 -11 13 -20 18 -20 12z"/>
 <path d="M4612 5131 c-11 -7 -11 -9 1 -14 16 -6 27 0 27 15 0 10 -11 10 -28 -1z"/>
 <path d="M4715 5129 c-4 -6 -4 -13 -1 -16 3 -4 6 -1 6 5 0 6 7 9 15 6 8 -4 15 -1 15 5 0 14 -27 14 -35 0z"/>
 <path d="M1363 5073 c9 -2 15 -9 12 -14 -4 -5 3 -9 14 -9 12 0 21 4 21 9 0 11 -26 21 -48 20 -15 -1 -15 -2 1 -6z"/>
 <path d="M1290 5026 c-16 -25 -30 -48 -30 -52 0 -9 45 50 61 79 19 33 0 17 -31 -27z"/>
 <path d="M1350 5019 c0 -5 -4 -7 -10 -4 -5 3 -10 -1 -10 -10 0 -9 -4 -13 -10 -10 -5 3 -7 0 -4 -8 9 -24 37 -13 40 16 1 15 1 27 -2 27 -2 0 -4 -5 -4 -11z"/>
 <path d="M2560 5020 c0 -5 6 -10 13 -10 7 0 27 -13 43 -29 21 -20 34 -27 44 -21 11 7 9 13 -11 29 -13 11 -32 20 -41 21 -9 0 -20 5 -23 10 -3 6 -10 10 -16 10 -5 0 -9 -4 -9 -10z"/>
 <path d="M1416 4989 c12 -13 20 -16 22 -9 3 7 -2 16 -9 21 -25 16 -32 9 -13 -12z"/>
 <path d="M1277 4926 c3 -14 -2 -35 -11 -48 -19 -26 -20 -38 -5 -38 5 0 7 5 4 10 -3 6 -1 10 4 10 6 0 11 6 11 14 0 8 4 16 9 18 11 4 2 58 -9 58 -4 0 -5 -11 -3 -24z"/>
 <path d="M2597 4941 c-10 -4 -18 -10 -17 -15 1 -4 -9 -16 -21 -27 -12 -10 -18 -19 -12 -19 5 0 24 16 43 35 19 19 32 35 29 34 -2 0 -12 -4 -22 -8z"/>
 <path d="M1350 4906 c0 -9 7 -16 16 -16 9 0 14 5 12 12 -6 18 -28 21 -28 4z"/>
 <path d="M1195 4868 c-10 -17 -13 -28 -7 -24 6 3 13 0 16 -6 3 -7 3 -3 0 9 -3 14 1 25 12 31 9 5 12 12 7 15 -5 3 -18 -8 -28 -25z"/>
 <path d="M2436 4845 c-23 -17 -13 -34 11 -19 19 12 29 34 16 34 -4 0 -17 -7 -27 -15z"/>
 <path d="M1147 4786 c-9 -13 -19 -36 -23 -50 -3 -14 -10 -29 -15 -32 -5 -3 -9 -10 -9 -17 0 -12 27 22 28 36 1 4 9 21 18 37 16 26 19 27 31 12 12 -15 13 -14 2 8 -6 14 -13 26 -14 28 -1 1 -9 -8 -18 -22z"/>
 <path d="M2286 4722 c-14 -13 -5 -23 10 -11 13 10 17 10 24 -1 7 -11 12 -11 23 -2 7 7 18 8 22 4 5 -4 5 -2 2 5 -7 11 -71 16 -81 5z"/>
 <path d="M2243 4628 c0 -24 2 -36 5 -28 3 8 12 20 21 27 11 8 12 12 4 13 -7 0 -13 7 -13 15 0 8 -4 15 -8 15 -4 0 -8 -19 -9 -42z"/>
 <path d="M1102 4628 c-17 -17 -15 -33 6 -49 15 -13 16 -12 4 3 -10 13 -11 22 -2 37 12 24 10 27 -8 9z"/>
 <path d="M1040 4556 c-6 -14 -15 -38 -21 -53 -30 -72 -81 -222 -89 -258 -9 -46 -4 -62 6 -19 16 69 67 203 75 198 5 -3 6 -10 3 -16 -4 -7 -2 -8 4 -4 9 5 9 12 0 25 -9 14 -7 28 6 62 10 24 24 51 32 61 10 11 12 18 5 23 -6 3 -15 -5 -21 -19z"/>
 <path d="M2220 4563 c0 -5 5 -15 10 -23 8 -12 10 -11 10 8 0 12 -4 22 -10 22 -5 0 -10 -3 -10 -7z"/>
 <path d="M2153 4533 c-15 -5 -18 -33 -4 -33 8 0 25 30 19 35 -2 1 -9 0 -15 -2z"/>
 <path d="M1080 4431 c0 -12 5 -21 10 -21 6 0 10 6 10 14 0 8 -4 18 -10 21 -5 3 -10 -3 -10 -14z"/>
 <path d="M2127 4433 c-14 -13 -6 -23 18 -23 18 0 23 4 19 15 -6 16 -26 20 -37 8z"/>
 <path d="M999 4343 c-15 -40 -14 -77 2 -67 5 3 7 10 3 15 -3 5 -1 15 4 22 8 10 14 67 7 67 -1 0 -8 -17 -16 -37z"/>
 <path d="M2076 4255 c-13 -10 -16 -19 -10 -25 5 -5 13 0 21 16 6 13 10 24 10 24 -1 0 -11 -7 -21 -15z"/>
 <path d="M2020 4189 c-18 -5 -20 -7 -6 -8 13 -1 17 -6 13 -21 -3 -11 -2 -22 3 -25 7 -4 24 55 18 60 -2 1 -14 -2 -28 -6z"/>
 <path d="M1974 4126 c-3 -7 -1 -29 4 -47 l10 -34 1 48 c1 47 -5 60 -15 33z"/>
 <path d="M951 4090 c-1 -19 -4 -47 -5 -62 -1 -15 2 -24 7 -19 4 4 6 32 4 62 -2 39 -4 44 -6 19z"/>
 <path d="M867 3973 c-11 -10 -8 -71 3 -78 5 -3 8 13 7 40 -1 25 -2 45 -3 45 0 0 -4 -3 -7 -7z"/>
 <path d="M915 3948 c-7 -24 -12 -178 -5 -178 4 0 12 -15 18 -32 l10 -33 1 33 c1 18 -4 32 -11 32 -8 0 -9 26 -5 95 6 86 3 116 -8 83z"/>
 <path d="M1960 3918 c1 -7 7 -26 15 -43 l13 -30 1 43 c1 31 -3 42 -14 42 -8 0 -15 -6 -15 -12z"/>
 <path d="M1938 3858 c-3 -15 -2 -32 2 -38 11 -18 18 10 10 40 l-6 25 -6 -27z"/>
 <path d="M847 3846 c-4 -10 -7 -25 -6 -34 0 -11 4 -9 10 7 5 13 8 29 6 35 -2 5 -6 2 -10 -8z"/>
 <path d="M841 3763 c-1 -12 4 -25 10 -29 6 -3 9 -15 6 -25 -3 -10 -2 -21 2 -23 4 -3 8 5 8 17 1 12 5 32 8 45 3 12 1 22 -5 22 -5 0 -10 -8 -11 -17 -1 -12 -4 -10 -9 7 -7 23 -8 23 -9 3z"/>
 <path d="M1923 3645 c0 -27 2 -38 4 -22 2 15 2 37 0 50 -2 12 -4 0 -4 -28z"/>
 <path d="M890 3669 c0 -5 -4 -8 -9 -4 -5 3 -13 0 -17 -6 -5 -8 -3 -9 5 -4 9 5 12 0 9 -15 -2 -13 3 -25 10 -27 8 -3 12 7 12 31 0 20 -2 36 -5 36 -3 0 -5 -5 -5 -11z"/>
 <path d="M953 3530 c0 -47 2 -66 4 -42 2 23 2 61 0 85 -2 23 -4 4 -4 -43z"/>
 <path d="M1923 3410 c0 -25 2 -35 4 -22 2 12 2 32 0 45 -2 12 -4 2 -4 -23z"/>
 <path d="M953 3345 c0 -33 2 -45 4 -27 2 18 2 45 0 60 -2 15 -4 0 -4 -33z"/>
 <path d="M850 3273 c0 -10 4 -24 9 -31 5 -9 8 -3 7 17 -1 32 -16 45 -16 14z"/>
 <path d="M876 3274 c-3 -9 1 -25 9 -37 14 -21 15 -20 15 16 0 38 -13 50 -24 21z"/>
 <path d="M1937 3223 c-3 -16 -1 -32 4 -37 5 -6 9 4 9 27 0 44 -6 48 -13 10z"/>
 <path d="M857 3203 c-2 -5 -2 -18 -1 -31 1 -15 -3 -21 -11 -18 -8 3 -11 -2 -8 -14 3 -11 11 -16 22 -13 13 3 16 13 13 44 -4 39 -7 46 -15 32z"/>
 <path d="M927 3166 c-4 -15 -6 -31 -2 -34 10 -10 16 6 13 35 l-3 28 -8 -29z"/>
 <path d="M1975 3180 c4 -7 2 -15 -4 -20 -7 -4 -15 -27 -18 -51 -3 -33 -2 -40 6 -29 6 8 11 23 11 33 0 9 4 17 8 17 12 0 13 48 0 56 -7 5 -8 3 -3 -6z"/>
 <path d="M841 3085 c0 -11 4 -27 9 -35 9 -13 10 -13 9 0 0 8 -4 24 -9 35 l-9 20 0 -20z"/>
 <path d="M910 3020 c0 -52 7 -64 35 -67 19 -1 19 -1 3 11 -10 7 -18 26 -18 42 0 16 -5 36 -10 44 -7 11 -10 3 -10 -30z"/>
 <path d="M1960 2956 c0 -8 5 -18 10 -21 6 -3 10 3 10 14 0 12 -4 21 -10 21 -5 0 -10 -6 -10 -14z"/>
 <path d="M2038 2883 c-6 -31 -1 -70 9 -70 8 0 8 8 2 25 -6 14 -8 31 -5 39 3 7 3 13 1 13 -3 0 -6 -3 -7 -7z"/>
 <path d="M2096 2665 c-3 -9 0 -15 8 -15 7 0 13 7 13 15 0 8 -4 15 -8 15 -4 0 -9 -7 -13 -15z"/>
 <path d="M2154 2540 c3 -8 9 -23 12 -32 8 -22 18 -23 34 -3 11 13 2 21 -15 13 -2 -2 -11 6 -20 17 -9 11 -14 13 -11 5z"/>
 <path d="M2240 2419 c0 -25 26 -44 34 -24 3 9 2 13 -3 10 -6 -3 -14 3 -20 12 -9 16 -10 16 -11 2z"/>
 <path d="M2306 2344 c-22 -22 -20 -36 6 -32 11 2 22 11 24 20 3 25 -12 31 -30 12z"/>
 <path d="M2417 2225 c-8 -8 -18 -11 -21 -7 -4 3 -4 -2 0 -12 7 -17 8 -17 19 -3 7 9 14 14 17 11 3 -2 8 2 11 11 8 19 -7 20 -26 0z"/>
 </g>
<g id="layer103" fill="#12a99d" stroke="none">
 <path d="M3500 6340 c-14 -4 22 -5 80 -2 58 2 107 6 109 8 8 8 -165 2 -189 -6z"/>
 <path d="M3774 6309 c16 -19 63 -72 105 -118 42 -47 94 -105 116 -130 22 -26 42 -48 45 -51 3 -3 34 -39 70 -80 36 -41 90 -101 120 -134 63 -67 52 -55 150 -166 41 -47 81 -92 90 -101 8 -9 29 -31 45 -50 52 -59 290 -324 295 -329 3 -3 39 -43 80 -90 41 -47 82 -90 90 -97 27 -22 4 -14 -98 37 -56 28 -107 50 -115 50 -7 0 -17 4 -22 8 -14 12 -182 66 -280 91 -223 55 -400 74 -685 75 -241 1 -335 -7 -525 -46 -88 -17 -241 -62 -300 -87 -187 -79 -368 -195 -494 -316 -87 -84 -201 -215 -201 -231 0 -4 -6 -15 -14 -23 -42 -48 -122 -210 -164 -336 -61 -179 -88 -318 -102 -525 -19 -284 27 -640 106 -818 7 -18 14 -38 14 -44 0 -6 23 -59 51 -117 45 -92 81 -152 187 -308 41 -61 226 -245 315 -314 83 -64 102 -83 59 -59 -9 5 -305 152 -657 326 -352 174 -761 376 -909 450 -148 74 -271 133 -272 131 -4 -4 20 -130 36 -192 56 -213 186 -555 212 -555 5 0 7 -4 4 -9 -12 -18 119 -255 151 -274 7 -4 13 -16 13 -25 0 -10 25 -52 55 -94 30 -42 55 -81 55 -87 0 -5 8 -16 18 -23 10 -7 38 -40 63 -73 59 -81 346 -368 359 -360 5 3 10 1 10 -6 0 -14 46 -59 61 -59 5 0 9 -7 9 -15 0 -8 7 -15 16 -15 9 0 34 -16 57 -35 22 -19 45 -35 49 -35 5 0 6 -5 3 -10 -4 -6 -3 -9 2 -8 4 1 19 -5 33 -13 14 -9 65 -42 113 -73 49 -31 92 -54 98 -51 5 4 9 0 9 -7 1 -14 76 -54 97 -52 7 1 11 -2 8 -5 -5 -9 186 -101 209 -101 9 0 16 -3 16 -8 0 -4 19 -13 43 -20 23 -8 76 -26 117 -42 109 -41 226 -71 246 -63 12 4 15 3 10 -5 -7 -12 -1 -13 59 -17 11 -1 30 -7 43 -14 13 -7 40 -14 60 -15 20 -2 89 -11 152 -20 63 -10 136 -16 163 -14 26 2 47 0 47 -4 0 -21 432 -4 600 23 41 7 92 13 113 13 20 1 37 4 37 7 0 8 41 22 58 20 28 -4 151 32 145 42 -3 6 -1 7 5 3 19 -12 316 82 337 107 6 7 15 12 20 13 18 1 70 17 75 23 7 9 159 83 199 97 19 7 37 16 40 21 5 7 38 29 106 71 87 53 135 89 135 99 0 7 7 13 16 13 9 0 47 25 85 55 37 30 70 55 74 55 5 0 115 101 189 176 85 83 173 183 231 260 33 43 62 81 65 84 3 3 21 28 40 55 19 28 42 59 51 70 9 11 25 36 36 55 10 19 32 55 48 80 16 25 29 47 30 50 0 3 17 38 38 78 21 39 35 77 31 84 -4 6 -3 8 4 4 6 -4 18 9 27 31 9 21 23 53 31 71 8 18 14 39 14 47 0 7 3 15 8 17 9 4 102 278 102 302 0 9 4 24 9 34 10 19 29 93 42 162 30 152 61 442 47 434 -4 -3 -8 7 -8 23 0 22 2 25 11 13 16 -23 4 317 -17 488 -10 77 -21 139 -25 137 -4 -3 -5 3 -3 13 7 23 -42 246 -54 250 -5 1 -8 11 -5 22 5 19 -13 84 -49 175 -11 28 -26 66 -33 85 -31 82 -40 98 -49 93 -5 -3 -6 -1 -2 5 10 17 -4 62 -21 62 -8 0 -11 4 -8 10 8 13 -134 284 -151 288 -8 2 -12 7 -9 12 6 9 -52 103 -104 169 -24 30 -31 46 -26 63 6 18 5 21 -5 11 -11 -10 -19 -5 -39 21 -97 123 -134 165 -143 159 -7 -3 -8 -1 -4 6 5 7 -24 43 -73 92 -45 45 -81 83 -81 86 0 8 -28 33 -37 33 -4 0 -36 25 -70 55 -59 53 -82 68 -67 43 4 -7 3 -8 -5 -4 -6 4 -9 11 -6 15 6 11 -14 29 -116 101 -46 33 -92 65 -102 72 -10 7 -33 22 -52 33 -152 89 -194 113 -225 128 -19 10 -42 22 -50 26 -8 5 -51 24 -95 42 -44 18 -84 36 -90 41 -5 4 -17 8 -27 8 -10 0 -18 4 -18 9 0 5 -15 12 -32 16 -18 4 -58 15 -88 25 -151 50 -227 71 -353 95 -77 15 -151 24 -165 21 -19 -5 -23 -4 -13 3 13 8 -80 18 -184 20 -16 0 -73 3 -124 7 l-95 7 28 -34z m261 -1754 c39 -7 97 -22 130 -34 32 -11 59 -21 60 -21 3 0 -8 -656 -12 -660 -2 -3 -155 -5 -339 -5 l-334 0 0 -312 0 -313 373 -1 372 0 55 -71 c30 -40 84 -106 120 -148 306 -360 360 -428 347 -438 -7 -5 -30 -17 -52 -26 -22 -10 -58 -25 -80 -35 -56 -25 -216 -76 -302 -96 -297 -69 -673 -69 -883 1 -66 22 -167 73 -232 116 -80 53 -217 186 -266 258 -48 70 -125 226 -140 285 -35 133 -42 173 -51 290 -31 375 63 727 247 926 74 80 183 163 267 202 33 16 67 32 75 36 8 5 51 16 95 26 44 10 94 21 110 25 50 12 366 8 440 -5z"/>
 <path d="M3290 6320 c-13 -9 -13 -10 0 -9 8 0 24 4 35 9 l20 9 -20 0 c-11 0 -27 -4 -35 -9z"/>
 <path d="M3040 6274 l-45 -14 40 6 c22 3 47 10 55 15 21 12 3 10 -50 -7z"/>
 <path d="M2576 6120 c-60 -27 -112 -53 -115 -56 -7 -9 -3 -7 139 55 63 28 108 51 100 51 -8 0 -64 -23 -124 -50z"/>
 <path d="M2325 5995 c-22 -13 -37 -25 -33 -25 9 0 78 41 78 46 0 6 -3 5 -45 -21z"/>
 <path d="M2198 5922 c-37 -25 -66 -48 -64 -50 4 -4 146 87 146 93 0 11 -18 1 -82 -43z"/>
 <path d="M2070 5834 c-55 -43 -61 -50 -35 -36 23 12 93 71 85 71 -3 1 -25 -15 -50 -35z"/>
 <path d="M1965 5755 c-16 -14 -25 -25 -19 -25 6 0 21 11 34 25 30 32 24 31 -15 0z"/>
 <path d="M1900 5703 c-31 -22 -102 -91 -74 -72 27 18 109 89 103 89 -2 0 -16 -8 -29 -17z"/>
 <path d="M1766 5592 c-11 -10 -34 -33 -50 -52 -17 -19 -48 -52 -68 -74 -75 -78 -36 -48 57 44 52 52 95 96 95 97 0 7 -17 0 -34 -15z"/>
 <path d="M1563 5383 c-9 -16 -21 -34 -26 -40 -5 -7 -7 -13 -5 -13 3 0 19 18 37 40 17 22 27 40 22 40 -6 0 -18 -12 -28 -27z"/>
 <path d="M1503 5308 c-20 -26 -26 -41 -15 -34 12 7 36 46 29 46 -3 0 -9 -6 -14 -12z"/>
 <path d="M1453 5248 c-20 -26 -26 -41 -15 -34 12 7 36 46 29 46 -3 0 -9 -6 -14 -12z"/>
 <path d="M1386 5160 c-14 -22 -24 -40 -22 -40 2 0 19 18 36 40 17 22 27 40 22 40 -5 0 -21 -18 -36 -40z"/>
 <path d="M1290 5026 c-16 -25 -30 -48 -30 -52 0 -9 45 50 61 79 19 33 0 17 -31 -27z"/>
 <path d="M1196 4868 l-18 -33 21 25 c18 22 26 40 18 40 -1 0 -11 -15 -21 -32z"/>
 <path d="M1148 4788 c-8 -13 -19 -34 -23 -48 -4 -14 -12 -31 -18 -38 -5 -7 -8 -15 -5 -17 2 -2 19 23 36 57 32 60 38 90 10 46z"/>
 <path d="M1040 4555 c-6 -14 -15 -37 -21 -52 -30 -72 -81 -222 -89 -258 -9 -46 -4 -62 6 -19 8 37 75 232 103 302 11 28 18 52 16 52 -3 0 -10 -11 -15 -25z"/>
 <path d="M864 3966 c-3 -8 -4 -25 -2 -38 3 -17 5 -13 9 15 5 38 2 47 -7 23z"/>
 <path d="M847 3846 c-4 -10 -7 -25 -6 -34 0 -11 4 -9 10 7 5 13 8 29 6 35 -2 5 -6 2 -10 -8z"/>
 <path d="M841 3085 c0 -11 4 -27 9 -35 9 -13 10 -13 9 0 0 8 -4 24 -9 35 l-9 20 0 -20z"/>
 <path d="M860 2974 c0 -16 5 -36 10 -44 6 -10 7 -2 3 25 -7 49 -13 58 -13 19z"/>
 </g>
<g id="layer104" fill="#5ca99f" stroke="none">
 <path d="M3500 6340 c-14 -4 22 -5 80 -2 58 2 107 6 109 8 8 8 -165 2 -189 -6z"/>
 <path d="M3290 6320 c-13 -9 -13 -10 0 -9 8 0 24 4 35 9 l20 9 -20 0 c-11 0 -27 -4 -35 -9z"/>
 <path d="M4040 6320 c8 -5 26 -10 40 -10 20 0 22 2 10 10 -8 5 -26 10 -40 10 -20 0 -22 -2 -10 -10z"/>
 <path d="M4160 6305 c76 -17 146 -27 137 -19 -7 8 -141 33 -172 33 -11 -1 5 -6 35 -14z"/>
 <path d="M3040 6274 l-45 -14 40 6 c22 3 47 10 55 15 21 12 3 10 -50 -7z"/>
 <path d="M4351 6275 c4 -3 65 -22 137 -41 364 -95 695 -256 1002 -485 154 -115 174 -127 110 -69 -38 35 -81 67 -243 182 -10 7 -33 22 -52 33 -152 89 -194 113 -225 128 -19 10 -42 22 -50 26 -8 5 -51 24 -95 42 -44 18 -84 36 -89 41 -6 4 -18 8 -28 8 -10 0 -18 4 -18 9 0 5 -19 14 -42 20 -24 5 -88 24 -143 42 -160 51 -279 80 -264 64z"/>
 <path d="M2576 6120 c-60 -27 -112 -53 -115 -56 -7 -9 -3 -7 139 55 63 28 108 51 100 51 -8 0 -64 -23 -124 -50z"/>
 <path d="M2325 5995 c-22 -13 -37 -25 -33 -25 9 0 78 41 78 46 0 6 -3 5 -45 -21z"/>
 <path d="M2198 5922 c-37 -25 -66 -48 -64 -50 4 -4 146 87 146 93 0 11 -18 1 -82 -43z"/>
 <path d="M2070 5834 c-55 -43 -61 -50 -35 -36 23 12 93 71 85 71 -3 1 -25 -15 -50 -35z"/>
 <path d="M1965 5755 c-16 -14 -25 -25 -19 -25 6 0 21 11 34 25 30 32 24 31 -15 0z"/>
 <path d="M1900 5703 c-31 -22 -102 -91 -74 -72 27 18 109 89 103 89 -2 0 -16 -8 -29 -17z"/>
 <path d="M5740 5540 c47 -43 87 -76 90 -73 3 2 -12 20 -33 39 -20 19 -37 37 -37 40 0 9 -28 34 -38 34 -5 0 -17 9 -27 20 -10 11 -23 20 -29 20 -6 -1 27 -36 74 -80z"/>
 <path d="M1766 5592 c-11 -10 -34 -33 -50 -52 -17 -19 -48 -52 -68 -74 -75 -78 -36 -48 57 44 52 52 95 96 95 97 0 7 -17 0 -34 -15z"/>
 <path d="M5860 5423 c14 -16 31 -35 40 -43 36 -35 150 -179 150 -189 0 -6 4 -11 9 -11 5 0 46 -54 91 -120 46 -66 85 -119 87 -116 5 5 -62 109 -106 165 -24 30 -31 46 -26 63 6 18 5 21 -5 11 -11 -10 -19 -5 -39 21 -118 152 -201 246 -217 246 -4 0 3 -12 16 -27z"/>
 <path d="M1563 5383 c-9 -16 -21 -34 -26 -40 -5 -7 -7 -13 -5 -13 3 0 19 18 37 40 17 22 27 40 22 40 -6 0 -18 -12 -28 -27z"/>
 <path d="M1503 5308 c-20 -26 -26 -41 -15 -34 12 7 36 46 29 46 -3 0 -9 -6 -14 -12z"/>
 <path d="M1453 5248 c-20 -26 -26 -41 -15 -34 12 7 36 46 29 46 -3 0 -9 -6 -14 -12z"/>
 <path d="M3575 5224 c-249 -27 -382 -52 -525 -100 -222 -74 -434 -200 -589 -349 -87 -84 -201 -215 -201 -231 0 -4 -6 -15 -14 -23 -42 -48 -122 -210 -164 -336 -61 -179 -88 -318 -102 -525 -19 -284 27 -640 106 -818 7 -18 14 -38 14 -44 0 -23 105 -226 159 -307 31 -46 67 -100 80 -120 50 -75 284 -295 386 -363 101 -67 273 -158 299 -158 8 0 16 -4 18 -8 3 -9 129 -55 193 -71 22 -5 58 -15 80 -21 169 -44 393 -64 665 -57 300 7 499 36 747 109 l113 33 0 368 c0 340 -4 392 -25 357 -4 -6 -28 -20 -53 -31 -26 -11 -65 -28 -87 -38 -55 -25 -215 -76 -302 -96 -299 -69 -673 -69 -883 1 -66 22 -167 73 -232 116 -80 53 -217 186 -266 258 -48 70 -125 226 -140 285 -35 133 -42 173 -51 290 -18 215 9 450 71 625 88 249 264 431 523 541 24 10 76 23 175 44 52 11 124 15 235 14 172 -1 265 -14 360 -48 32 -11 59 -21 60 -21 3 0 -8 -656 -12 -660 -2 -3 -155 -5 -339 -5 l-334 0 0 -312 0 -313 730 0 730 0 0 864 0 864 -44 25 c-37 21 -124 61 -211 98 -143 60 -400 122 -625 149 -91 11 -478 21 -545 14z"/>
 <path d="M1386 5160 c-14 -22 -24 -40 -22 -40 2 0 19 18 36 40 17 22 27 40 22 40 -5 0 -21 -18 -36 -40z"/>
 <path d="M1290 5026 c-16 -25 -30 -48 -30 -52 0 -9 45 50 61 79 19 33 0 17 -31 -27z"/>
 <path d="M6240 4926 c0 -3 14 -29 31 -57 17 -29 51 -93 75 -142 25 -49 48 -87 50 -84 7 7 -135 281 -147 285 -5 2 -9 1 -9 -2z"/>
 <path d="M1196 4868 l-18 -33 21 25 c18 22 26 40 18 40 -1 0 -11 -15 -21 -32z"/>
 <path d="M1148 4788 c-8 -13 -18 -34 -22 -48 -5 -16 2 -9 19 18 28 44 30 71 3 30z"/>
 <path d="M6400 4624 c0 -3 8 -24 19 -47 27 -61 86 -221 112 -307 13 -41 25 -67 27 -57 4 18 -16 85 -50 172 -11 28 -27 68 -35 90 -9 22 -22 54 -29 70 -7 17 -16 42 -19 58 -6 23 -25 39 -25 21z"/>
 <path d="M1040 4555 c-6 -14 -15 -37 -21 -52 -30 -72 -81 -222 -89 -258 -9 -46 -4 -62 6 -19 8 37 75 232 103 302 11 28 18 52 16 52 -3 0 -10 -11 -15 -25z"/>
 <path d="M6563 4165 c8 -56 60 -275 65 -271 6 6 -49 268 -60 286 -6 11 -8 6 -5 -15z"/>
 <path d="M864 3966 c-3 -8 -4 -25 -2 -38 3 -17 5 -13 9 15 5 38 2 47 -7 23z"/>
 <path d="M6626 3835 c4 -27 8 -52 10 -54 9 -10 3 75 -6 89 -7 10 -8 -1 -4 -35z"/>
 <path d="M847 3846 c-4 -10 -7 -25 -6 -34 0 -11 4 -9 10 7 5 13 8 29 6 35 -2 5 -6 2 -10 -8z"/>
 <path d="M6641 3715 c0 -11 4 -29 9 -40 l9 -20 0 20 c0 11 -4 29 -9 40 l-9 20 0 -20z"/>
 <path d="M6650 3590 c0 -29 2 -51 4 -49 8 8 10 88 3 95 -4 4 -7 -17 -7 -46z"/>
 <path d="M6664 3405 c0 -66 1 -92 3 -57 2 34 2 88 0 120 -2 31 -3 3 -3 -63z"/>
 <path d="M6654 3256 c-3 -8 -4 -25 -2 -38 3 -17 5 -13 9 15 5 38 2 47 -7 23z"/>
 <path d="M6648 3184 c-5 -4 -8 -21 -8 -38 0 -21 3 -27 11 -19 6 6 9 23 7 38 -2 15 -6 23 -10 19z"/>
 <path d="M841 3085 c0 -11 4 -27 9 -35 9 -13 10 -13 9 0 0 8 -4 24 -9 35 l-9 20 0 -20z"/>
 <path d="M6636 3053 c-4 -21 -9 -51 -12 -68 -4 -20 -3 -27 4 -20 9 10 26 125 18 125 -2 0 -7 -17 -10 -37z"/>
 <path d="M860 2974 c0 -16 5 -36 10 -44 6 -10 7 -2 3 25 -7 49 -13 58 -13 19z"/>
 <path d="M6611 2895 c-7 -33 -21 -95 -32 -138 -22 -89 -23 -101 -9 -92 6 3 10 16 10 27 0 12 6 44 14 72 24 84 39 162 34 177 -3 8 -11 -13 -17 -46z"/>
 <path d="M874 2890 c2 -14 8 -43 11 -65 14 -80 55 -226 68 -240 6 -6 7 -1 2 13 -20 66 -54 202 -60 242 -4 25 -12 52 -17 60 -7 11 -8 8 -4 -10z"/>
 <path d="M6512 2516 c-47 -143 -111 -300 -168 -409 -20 -38 -33 -71 -31 -74 5 -4 60 95 93 167 33 73 44 102 44 115 0 7 3 15 8 17 10 4 106 292 101 306 -2 6 -23 -49 -47 -122z"/>
 <path d="M960 2549 c0 -39 146 -397 157 -385 2 2 -10 35 -27 72 -17 38 -35 78 -40 89 -5 11 -25 67 -46 125 -38 110 -44 123 -44 99z"/>
 <path d="M1120 2146 c0 -11 75 -153 110 -208 51 -81 52 -67 1 20 -21 37 -53 95 -70 130 -27 53 -41 73 -41 58z"/>
 <path d="M6272 1974 c-15 -26 -63 -102 -107 -169 -44 -68 -76 -121 -70 -118 5 2 25 27 44 56 19 29 43 61 52 72 9 11 25 36 36 55 10 19 32 55 48 80 27 42 39 70 29 70 -3 0 -17 -21 -32 -46z"/>
 <path d="M1293 1836 c3 -8 29 -46 56 -84 28 -39 51 -74 51 -78 0 -5 14 -22 30 -37 43 -41 37 -22 -13 42 -24 31 -61 82 -82 114 -37 55 -53 72 -42 43z"/>
 <path d="M5993 1572 c-45 -54 -138 -155 -208 -225 -129 -129 -155 -161 -68 -84 114 100 312 319 357 395 19 33 -8 3 -81 -86z"/>
 <path d="M1470 1597 c0 -17 58 -84 184 -214 71 -73 134 -133 139 -133 6 0 -43 55 -109 123 -66 67 -141 147 -167 177 -26 30 -47 51 -47 47z"/>
 <path d="M1850 1204 c0 -10 49 -54 61 -54 5 0 9 -6 9 -14 0 -7 12 -16 27 -19 27 -5 27 -5 -7 24 -55 46 -90 71 -90 63z"/>
 <path d="M5600 1179 c-19 -17 -61 -50 -93 -75 -33 -24 -54 -44 -47 -44 7 0 42 24 78 53 36 28 75 57 86 62 20 10 34 35 19 35 -4 -1 -24 -14 -43 -31z"/>
 <path d="M2005 1075 c17 -14 34 -25 38 -25 5 0 5 -5 2 -10 -4 -6 -3 -9 2 -8 4 1 19 -5 33 -13 14 -9 65 -42 114 -73 48 -31 91 -55 94 -52 3 4 3 7 1 9 -6 5 -177 110 -197 122 -10 6 -36 25 -59 43 -22 17 -45 32 -49 32 -5 -1 5 -12 21 -25z"/>
 <path d="M5380 1012 c-110 -75 -198 -126 -347 -200 -84 -41 -152 -77 -150 -78 4 -4 69 18 77 26 8 8 163 83 199 96 19 7 37 16 40 21 5 7 47 35 102 68 23 14 133 87 138 91 2 2 2 6 0 9 -3 2 -29 -13 -59 -33z"/>
 <path d="M2300 883 c0 -11 297 -156 310 -151 6 2 -37 26 -97 53 -59 27 -128 62 -152 77 -46 29 -61 34 -61 21z"/>
 <path d="M2630 721 c0 -6 6 -11 13 -11 6 0 48 -14 92 -31 67 -26 161 -55 274 -86 15 -4 22 -2 18 4 -4 6 -24 14 -44 18 -46 8 -248 73 -283 90 -42 21 -70 27 -70 16z"/>
 <path d="M4845 723 c-26 -6 -44 -23 -24 -23 8 0 24 7 35 15 10 8 17 14 14 14 -3 -1 -14 -3 -25 -6z"/>
 <path d="M4660 659 c-63 -22 -155 -49 -205 -61 -49 -12 -83 -23 -74 -25 9 -2 52 6 95 18 43 12 100 28 126 35 67 18 171 56 183 66 15 14 -4 9 -125 -33z"/>
 <path d="M3060 580 c14 -4 34 -8 45 -9 16 -1 17 1 5 9 -8 5 -28 9 -45 9 -29 -1 -29 -1 -5 -9z"/>
 <path d="M3152 560 c20 -12 113 -21 101 -9 -4 4 -33 11 -63 14 -42 5 -51 4 -38 -5z"/>
 <path d="M4248 556 c-31 -6 -60 -15 -65 -20 -4 -5 7 -5 27 0 19 5 52 9 72 9 21 0 40 6 43 13 5 14 1 14 -77 -2z"/>
 <path d="M3275 542 c6 -5 37 -12 70 -15 69 -7 46 6 -30 17 -32 5 -46 4 -40 -2z"/>
 <path d="M3425 520 c3 -5 21 -10 38 -9 27 0 29 2 12 9 -28 12 -57 12 -50 0z"/>
 <path d="M4025 520 c-17 -7 -15 -9 12 -9 17 -1 35 4 38 9 7 12 -22 12 -50 0z"/>
 <path d="M3570 509 c0 -5 19 -9 42 -9 49 0 47 5 -4 13 -21 3 -38 2 -38 -4z"/>
 <path d="M3875 510 l-30 -8 30 0 c17 0 50 3 75 7 l45 8 -45 1 c-25 0 -58 -4 -75 -8z"/>
 </g>
<g id="layer105" fill="#6fcbc0" stroke="none">
 <path d="M3563 6343 c26 -2 67 -2 90 0 23 2 2 3 -48 3 -49 0 -68 -1 -42 -3z"/>
 <path d="M4031 6326 c2 -2 20 -6 39 -10 25 -4 31 -3 20 4 -14 9 -69 15 -59 6z"/>
 <path d="M4175 6304 c123 -23 129 -24 122 -18 -8 8 -143 33 -172 32 -11 0 12 -6 50 -14z"/>
 <path d="M4351 6276 c5 -5 163 -46 176 -46 23 1 -34 22 -97 35 -76 16 -86 17 -79 11z"/>
 <path d="M4590 6210 c8 -5 24 -10 34 -10 26 0 18 6 -19 14 -22 5 -26 4 -15 -4z"/>
 <path d="M4716 6171 c13 -12 76 -32 82 -26 9 8 -2 13 -47 24 -24 5 -39 6 -35 2z"/>
 <path d="M2635 6146 c-65 -32 -55 -32 20 -1 33 13 53 25 45 25 -8 0 -37 -11 -65 -24z"/>
 <path d="M2540 6105 c-14 -8 -20 -14 -15 -14 6 0 21 6 35 14 14 8 21 14 15 14 -5 0 -21 -6 -35 -14z"/>
 <path d="M4960 6075 c0 -5 251 -135 259 -135 10 0 -80 55 -124 75 -22 10 -46 23 -54 29 -14 11 -81 36 -81 31z"/>
 <path d="M2338 6004 c-38 -20 -36 -28 2 -9 17 9 30 18 30 20 0 7 -1 6 -32 -11z"/>
 <path d="M2230 5944 c-19 -14 -37 -27 -40 -31 -9 -9 54 24 75 41 33 25 3 16 -35 -10z"/>
 <path d="M5234 5931 c4 -6 16 -16 28 -22 15 -8 18 -8 14 0 -4 6 -16 16 -28 22 -15 8 -18 8 -14 0z"/>
 <path d="M5296 5892 c5 -5 45 -33 89 -63 44 -29 114 -80 155 -113 98 -77 116 -88 60 -37 -25 23 -85 71 -135 106 -49 35 -94 68 -100 72 -34 28 -97 59 -69 35z"/>
 <path d="M2085 5844 l-30 -26 33 22 c17 12 32 23 32 26 0 7 -4 5 -35 -22z"/>
 <path d="M5743 5541 c45 -44 84 -77 87 -74 3 2 -12 20 -33 39 -20 19 -37 37 -37 40 0 9 -28 34 -38 34 -5 0 -17 9 -27 20 -10 11 -22 20 -26 20 -5 0 29 -36 74 -79z"/>
 <path d="M1745 5572 c-11 -9 -31 -30 -45 -46 -20 -23 -21 -26 -5 -16 18 12 82 80 73 80 -1 0 -12 -8 -23 -18z"/>
 <path d="M5890 5393 c30 -32 57 -62 62 -67 5 -6 8 -6 8 0 0 12 -104 124 -115 124 -4 0 16 -26 45 -57z"/>
 <path d="M1573 5398 c-24 -32 -24 -41 0 -19 15 14 27 26 27 28 0 8 -19 2 -27 -9z"/>
 <path d="M6040 5216 c38 -49 55 -64 61 -54 13 19 11 34 -2 21 -9 -9 -21 1 -50 37 -21 26 -43 52 -50 55 -6 4 12 -22 41 -59z"/>
 <path d="M3570 5219 c-268 -17 -564 -94 -760 -197 -337 -177 -587 -458 -713 -799 -79 -215 -106 -365 -114 -638 -6 -217 5 -354 43 -523 62 -281 166 -503 328 -702 308 -379 659 -569 1206 -652 112 -17 563 -17 690 1 244 33 438 76 563 125 l27 11 0 360 0 361 -97 -48 c-53 -26 -135 -59 -182 -74 -47 -14 -97 -30 -111 -35 -36 -12 -223 -47 -310 -58 -132 -15 -368 -13 -481 5 -225 35 -404 129 -565 295 -89 93 -126 143 -174 239 -93 185 -123 325 -123 585 -1 110 4 221 12 265 43 257 133 433 300 592 153 146 312 213 568 238 168 17 384 -5 498 -50 l50 -20 -3 -328 c-2 -180 -6 -329 -9 -332 -2 -3 -152 -6 -331 -7 -180 -2 -330 -3 -334 -3 -5 0 -8 -137 -8 -305 l0 -305 383 0 c210 0 537 0 727 -1 l345 0 3 860 2 861 -77 39 c-279 139 -602 219 -983 241 -172 10 -204 10 -370 -1z"/>
 <path d="M6138 5084 c6 -11 19 -27 28 -35 16 -13 16 -12 6 7 -6 11 -19 27 -28 35 -16 13 -16 12 -6 -7z"/>
 <path d="M1300 5040 c-12 -16 -19 -30 -16 -30 2 0 14 14 26 30 12 17 19 30 16 30 -2 0 -14 -13 -26 -30z"/>
 <path d="M6180 5025 c0 -10 53 -85 57 -81 3 2 -8 23 -23 45 -25 39 -34 48 -34 36z"/>
 <path d="M6250 4918 c0 -9 9 -26 20 -39 l20 -24 -12 30 c-15 39 -28 54 -28 33z"/>
 <path d="M1148 4788 c-15 -23 -35 -78 -25 -68 8 8 48 90 43 90 -2 0 -10 -10 -18 -22z"/>
 <path d="M6400 4625 c0 -13 53 -115 58 -111 3 3 0 11 -6 18 -5 7 -16 32 -23 56 -6 23 -16 42 -21 42 -4 0 -8 -2 -8 -5z"/>
 <path d="M1000 4460 c-7 -17 -10 -33 -8 -36 3 -3 11 9 17 27 14 42 7 49 -9 9z"/>
 <path d="M6491 4410 c-1 -3 15 -52 34 -110 18 -58 34 -96 34 -84 1 22 -40 151 -58 181 -6 10 -10 16 -10 13z"/>
 <path d="M942 4295 c-7 -14 -12 -34 -11 -43 0 -9 7 1 15 22 16 45 13 59 -4 21z"/>
 <path d="M6564 4175 c3 -11 17 -80 32 -152 15 -73 29 -131 32 -129 6 6 -49 268 -60 286 -7 12 -8 10 -4 -5z"/>
 <path d="M864 3966 c-3 -8 -4 -25 -2 -38 3 -17 5 -13 9 15 5 38 2 47 -7 23z"/>
 <path d="M6633 3825 c0 -22 2 -30 4 -17 2 12 2 30 0 40 -3 9 -5 -1 -4 -23z"/>
 <path d="M6650 3595 c0 -27 2 -46 4 -44 8 8 10 78 3 85 -4 4 -7 -14 -7 -41z"/>
 <path d="M6664 3405 c0 -66 1 -92 3 -57 2 34 2 88 0 120 -2 31 -3 3 -3 -63z"/>
 <path d="M6654 3256 c-3 -8 -4 -25 -2 -38 3 -17 5 -13 9 15 5 38 2 47 -7 23z"/>
 <path d="M6651 3173 c0 -12 -4 -30 -7 -40 -5 -14 -4 -15 5 -7 7 6 11 24 8 40 -3 21 -4 23 -6 7z"/>
 <path d="M6636 3059 c-3 -17 -5 -46 -5 -63 1 -18 5 -7 10 28 9 63 6 88 -5 35z"/>
 <path d="M6606 2862 c-10 -51 -16 -95 -13 -98 3 -3 8 11 12 32 3 22 11 58 16 80 6 23 9 50 7 60 -2 11 -12 -23 -22 -74z"/>
 <path d="M873 2890 c3 -14 9 -43 13 -65 11 -63 43 -188 50 -194 4 -3 4 5 1 19 -4 14 -18 77 -33 140 -14 63 -28 117 -31 120 -3 3 -3 -6 0 -20z"/>
 <path d="M6569 2692 c-3 -20 -2 -29 4 -23 5 5 7 19 5 32 -3 20 -5 19 -9 -9z"/>
 <path d="M6543 2607 c-18 -64 -15 -82 3 -29 8 24 14 51 12 59 -2 9 -9 -5 -15 -30z"/>
 <path d="M961 2549 c-1 -9 10 -45 24 -80 31 -83 32 -63 1 27 -14 38 -25 62 -25 53z"/>
 <path d="M6479 2413 c-5 -14 -8 -30 -6 -36 1 -5 8 7 14 27 13 42 7 49 -8 9z"/>
 <path d="M1040 2315 c1 -6 7 -21 16 -35 l15 -25 -7 25 c-7 26 -24 52 -24 35z"/>
 <path d="M6427 2279 c-8 -19 -27 -60 -41 -93 -34 -73 -29 -84 6 -13 41 84 59 129 54 134 -3 3 -11 -10 -19 -28z"/>
 <path d="M6331 2074 c-12 -20 -20 -39 -17 -41 2 -3 14 13 26 36 25 51 20 54 -9 5z"/>
 <path d="M1180 2020 c12 -23 24 -40 26 -37 7 7 -22 64 -37 72 -6 4 -1 -12 11 -35z"/>
 <path d="M6293 2003 c-4 -10 -20 -37 -35 -59 -15 -23 -28 -45 -28 -48 0 -3 -15 -27 -34 -53 -18 -27 -41 -61 -51 -78 l-17 -30 20 25 c40 48 59 75 78 110 11 19 33 55 49 80 27 42 39 70 29 70 -3 0 -8 -8 -11 -17z"/>
 <path d="M1237 1925 c15 -24 29 -42 31 -40 4 4 -46 85 -53 85 -2 0 8 -20 22 -45z"/>
 <path d="M1299 1822 c6 -12 16 -24 22 -28 8 -4 8 -1 0 14 -6 12 -16 24 -22 28 -8 4 -8 1 0 -14z"/>
 <path d="M1364 1731 c20 -27 36 -53 36 -57 0 -5 14 -23 32 -39 18 -17 28 -23 23 -15 -16 28 -117 160 -122 160 -3 0 11 -22 31 -49z"/>
 <path d="M6099 1704 c-13 -14 -17 -23 -9 -19 13 5 46 45 37 45 -2 0 -14 -11 -28 -26z"/>
 <path d="M1470 1597 c0 -25 301 -347 324 -347 6 0 -26 35 -71 78 -79 74 -153 154 -220 237 -18 22 -33 36 -33 32z"/>
 <path d="M5950 1518 c-71 -81 -78 -100 -11 -28 51 54 71 82 59 80 -2 -1 -23 -24 -48 -52z"/>
 <path d="M5785 1340 c-16 -17 -24 -30 -19 -30 13 0 59 48 52 55 -2 3 -17 -9 -33 -25z"/>
 <path d="M5695 1255 c-22 -19 -37 -34 -33 -35 4 0 24 16 45 35 49 45 40 45 -12 0z"/>
 <path d="M5620 1190 c-19 -15 -21 -20 -9 -20 16 0 46 27 38 35 -2 2 -15 -5 -29 -15z"/>
 <path d="M5523 1113 c-35 -26 -61 -49 -58 -51 4 -4 125 87 125 94 0 7 -4 4 -67 -43z"/>
 <path d="M1920 1135 c0 -8 7 -15 16 -15 14 0 14 3 4 15 -7 8 -14 15 -16 15 -2 0 -4 -7 -4 -15z"/>
 <path d="M2005 1076 c17 -14 34 -26 38 -26 5 0 5 -5 1 -12 -4 -6 -3 -8 4 -4 6 3 13 2 17 -4 7 -11 45 -33 45 -27 0 6 -99 80 -120 91 -8 4 -1 -4 15 -18z"/>
 <path d="M5393 1018 c-48 -33 -58 -48 -15 -23 42 25 66 44 61 49 -2 2 -23 -9 -46 -26z"/>
 <path d="M2121 996 c14 -15 162 -106 165 -103 5 4 -153 107 -163 107 -4 0 -4 -2 -2 -4z"/>
 <path d="M5309 960 c-13 -10 -19 -19 -13 -20 6 0 19 9 29 20 23 26 14 26 -16 0z"/>
 <path d="M5230 914 c-19 -14 -54 -33 -76 -43 -23 -10 -45 -25 -50 -32 -6 -11 -5 -12 7 -3 8 6 25 14 39 17 14 3 34 13 45 22 11 8 35 27 54 40 19 14 31 25 25 25 -5 -1 -25 -12 -44 -26z"/>
 <path d="M2350 855 c0 -9 245 -125 261 -124 8 0 3 5 -11 12 -14 6 -74 35 -134 64 -113 55 -116 56 -116 48z"/>
 <path d="M4925 756 c-18 -13 -18 -14 8 -9 15 3 27 9 27 14 0 13 -13 11 -35 -5z"/>
 <path d="M2630 722 c0 -4 30 -17 67 -29 37 -13 62 -19 57 -15 -15 14 -124 52 -124 44z"/>
 <path d="M4835 715 c-16 -8 -23 -14 -14 -15 8 0 24 7 35 15 23 18 18 18 -21 0z"/>
 <path d="M4665 658 c-33 -12 -55 -23 -49 -25 6 -2 39 8 75 21 78 30 58 33 -26 4z"/>
 <path d="M2811 650 c18 -11 102 -31 107 -25 4 3 -100 35 -115 35 -4 0 -1 -5 8 -10z"/>
 <path d="M4465 600 c-55 -16 -92 -29 -82 -29 19 -1 146 32 187 48 45 18 -3 9 -105 -19z"/>
 <path d="M3164 556 c16 -7 38 -11 48 -8 25 6 21 8 -32 15 -43 6 -44 5 -16 -7z"/>
 <path d="M4260 556 c0 -2 14 -6 30 -8 17 -3 30 -1 30 4 0 4 -13 8 -30 8 -16 0 -30 -2 -30 -4z"/>
 <path d="M4195 540 c-25 -11 1 -11 35 0 20 6 21 8 5 8 -11 0 -29 -3 -40 -8z"/>
 <path d="M3281 536 c2 -2 31 -6 64 -9 37 -3 51 -2 35 3 -25 8 -107 13 -99 6z"/>
 <path d="M3425 520 c3 -6 20 -10 37 -10 38 0 34 5 -10 13 -21 4 -31 3 -27 -3z"/>
 <path d="M4035 520 l-30 -8 32 -1 c17 0 35 4 38 9 7 11 3 11 -40 0z"/>
 <path d="M3588 503 c12 -2 32 -2 45 0 12 2 2 4 -23 4 -25 0 -35 -2 -22 -4z"/>
 <path d="M3868 503 c12 -2 30 -2 40 0 9 3 -1 5 -23 4 -22 0 -30 -2 -17 -4z"/>
 </g>
<g id="layer106" fill="#73d1c9" stroke="none">
 <path d="M3563 6343 c26 -2 67 -2 90 0 23 2 2 3 -48 3 -49 0 -68 -1 -42 -3z"/>
 <path d="M4031 6326 c2 -2 20 -6 39 -10 25 -4 31 -3 20 4 -14 9 -69 15 -59 6z"/>
 <path d="M4135 6310 c17 -4 44 -8 60 -8 25 0 24 2 -10 9 -51 10 -92 10 -50 -1z"/>
 <path d="M4241 6296 c2 -2 18 -6 34 -10 22 -5 26 -4 15 4 -14 9 -59 15 -49 6z"/>
 <path d="M4365 6270 c19 -8 73 -14 64 -6 -2 2 -22 6 -44 9 -28 5 -34 4 -20 -3z"/>
 <path d="M4450 6251 c8 -5 31 -11 50 -15 l35 -6 -30 15 c-33 16 -82 21 -55 6z"/>
 <path d="M2645 6151 c-22 -11 -35 -19 -30 -19 14 -1 93 36 80 37 -5 0 -28 -8 -50 -18z"/>
 <path d="M4763 6155 c16 -9 31 -14 35 -11 8 9 0 14 -33 21 l-30 6 28 -16z"/>
 <path d="M2540 6105 c-14 -8 -20 -14 -15 -14 6 0 21 6 35 14 14 8 21 14 15 14 -5 0 -21 -6 -35 -14z"/>
 <path d="M4960 6075 c0 -6 183 -95 188 -91 2 3 -18 15 -44 27 -27 12 -55 27 -63 33 -13 10 -81 36 -81 31z"/>
 <path d="M2338 6004 c-38 -20 -36 -28 2 -9 17 9 30 18 30 20 0 7 -1 6 -32 -11z"/>
 <path d="M5180 5961 c14 -11 30 -21 35 -21 11 0 -7 14 -40 31 -13 7 -12 3 5 -10z"/>
 <path d="M2230 5944 c-19 -14 -37 -27 -40 -31 -9 -9 54 24 75 41 33 25 3 16 -35 -10z"/>
 <path d="M5234 5931 c4 -6 16 -16 28 -22 15 -8 18 -8 14 0 -4 6 -16 16 -28 22 -15 8 -18 8 -14 0z"/>
 <path d="M5290 5896 c0 -4 56 -41 105 -70 l30 -18 -25 21 c-58 49 -110 81 -110 67z"/>
 <path d="M2085 5844 l-30 -26 33 22 c17 12 32 23 32 26 0 7 -4 5 -35 -22z"/>
 <path d="M5430 5806 c0 -2 14 -14 30 -26 17 -12 30 -19 30 -16 0 2 -13 14 -30 26 -16 12 -30 19 -30 16z"/>
 <path d="M5508 5749 c6 -9 40 -37 75 -63 61 -47 62 -47 17 -6 -53 48 -111 91 -92 69z"/>
 <path d="M5744 5543 c44 -46 82 -80 85 -77 3 3 -11 21 -32 40 -20 19 -37 37 -37 40 0 8 -27 34 -36 34 -4 0 -19 10 -33 22 -14 12 10 -14 53 -59z"/>
 <path d="M1745 5572 c-26 -22 -70 -72 -64 -72 3 0 25 20 49 45 44 45 52 59 15 27z"/>
 <path d="M5890 5393 c30 -32 57 -62 62 -67 5 -6 8 -6 8 0 0 12 -104 124 -115 124 -4 0 16 -26 45 -57z"/>
 <path d="M1573 5398 c-24 -32 -24 -41 0 -19 15 14 27 26 27 28 0 8 -19 2 -27 -9z"/>
 <path d="M3568 5220 c-570 -42 -1010 -266 -1292 -659 -187 -261 -281 -573 -293 -973 -14 -472 89 -840 328 -1171 97 -134 263 -301 375 -377 275 -187 503 -273 879 -332 105 -16 549 -16 680 1 198 25 348 56 498 104 l97 31 0 362 0 362 -62 -33 c-147 -78 -322 -133 -543 -172 -76 -13 -157 -17 -335 -17 -210 0 -244 2 -317 21 -194 52 -355 145 -489 284 -91 95 -126 143 -176 244 -93 184 -121 322 -122 585 -1 396 88 639 315 854 77 74 107 94 202 140 174 84 369 116 594 97 140 -12 197 -23 268 -51 l50 -20 -3 -328 c-2 -180 -6 -329 -9 -332 -2 -3 -152 -6 -331 -7 -180 -2 -330 -3 -334 -3 -5 0 -8 -137 -8 -305 l0 -305 730 0 730 0 0 860 0 860 -81 41 c-172 86 -396 158 -623 199 -204 37 -528 54 -728 40z"/>
 <path d="M6070 5182 c17 -26 25 -31 31 -20 13 19 11 34 -2 21 -9 -9 -17 -6 -31 10 -15 17 -14 14 2 -11z"/>
 <path d="M6149 5073 c12 -18 24 -33 27 -33 9 0 -15 37 -33 51 -12 10 -11 5 6 -18z"/>
 <path d="M1300 5040 c-12 -16 -19 -30 -16 -30 2 0 14 14 26 30 12 17 19 30 16 30 -2 0 -14 -13 -26 -30z"/>
 <path d="M6250 4917 c0 -8 6 -20 14 -26 12 -10 13 -8 9 9 -7 25 -23 37 -23 17z"/>
 <path d="M1148 4788 c-15 -23 -35 -78 -25 -68 8 8 48 90 43 90 -2 0 -10 -10 -18 -22z"/>
 <path d="M6415 4593 c16 -38 33 -62 22 -30 -4 11 -10 30 -13 43 -3 13 -10 24 -15 24 -5 0 -2 -17 6 -37z"/>
 <path d="M1002 4465 c-7 -14 -12 -31 -12 -38 1 -7 7 3 16 22 17 39 13 54 -4 16z"/>
 <path d="M6491 4410 c-1 -3 15 -52 34 -110 18 -58 34 -96 34 -84 1 22 -40 151 -58 181 -6 10 -10 16 -10 13z"/>
 <path d="M942 4295 c-7 -14 -12 -34 -11 -43 0 -9 7 1 15 22 16 45 13 59 -4 21z"/>
 <path d="M6563 4175 c3 -11 11 -44 17 -73 7 -29 14 -51 16 -49 6 6 -23 127 -32 136 -3 3 -4 -3 -1 -14z"/>
 <path d="M864 3966 c-3 -8 -4 -23 -2 -33 3 -11 6 -6 9 15 6 34 2 42 -7 18z"/>
 <path d="M6632 3830 c0 -19 2 -27 5 -17 2 9 2 25 0 35 -3 9 -5 1 -5 -18z"/>
 <path d="M6650 3616 c0 -31 6 -34 13 -6 3 11 1 23 -4 26 -5 3 -9 -6 -9 -20z"/>
 <path d="M6664 3405 c0 -66 1 -92 3 -57 2 34 2 88 0 120 -2 31 -3 3 -3 -63z"/>
 <path d="M6652 3160 c0 -19 2 -27 5 -17 2 9 2 25 0 35 -3 9 -5 1 -5 -18z"/>
 <path d="M6633 3005 c0 -22 2 -30 4 -17 2 12 2 30 0 40 -3 9 -5 -1 -4 -23z"/>
 <path d="M6615 2912 c-4 -24 -5 -46 -2 -49 8 -7 20 63 14 79 -2 7 -7 -6 -12 -30z"/>
 <path d="M6601 2825 c-1 -11 -4 -31 -6 -45 l-6 -25 11 25 c6 13 9 33 7 45 -4 19 -4 19 -6 0z"/>
 <path d="M891 2795 c0 -11 4 -29 9 -40 l9 -20 0 20 c0 11 -4 29 -9 40 l-9 20 0 -20z"/>
 <path d="M6569 2692 c-3 -20 -2 -29 4 -23 5 5 7 19 5 32 -3 20 -5 19 -9 -9z"/>
 <path d="M920 2670 c0 -8 5 -22 10 -30 9 -13 10 -13 10 0 0 8 -5 22 -10 30 -9 13 -10 13 -10 0z"/>
 <path d="M6545 2610 c-4 -12 -5 -24 -2 -27 3 -2 8 5 12 17 4 12 5 24 2 27 -3 2 -8 -5 -12 -17z"/>
 <path d="M1040 2315 c1 -6 7 -21 16 -35 l15 -25 -7 25 c-7 26 -24 52 -24 35z"/>
 <path d="M6401 2219 c-44 -98 -52 -133 -9 -46 38 79 59 129 55 133 -2 2 -22 -37 -46 -87z"/>
 <path d="M6330 2070 c-11 -22 -18 -40 -15 -40 2 0 14 18 25 40 11 22 18 40 15 40 -2 0 -14 -18 -25 -40z"/>
 <path d="M1180 2019 c12 -23 24 -39 26 -36 5 5 -35 77 -42 77 -3 0 5 -18 16 -41z"/>
 <path d="M6293 2003 c-3 -10 -15 -31 -26 -46 -10 -16 -17 -30 -14 -33 5 -5 49 64 53 84 3 18 -6 15 -13 -5z"/>
 <path d="M6207 1855 c-14 -25 -24 -45 -22 -45 7 0 57 81 53 85 -2 2 -16 -16 -31 -40z"/>
 <path d="M1299 1822 c6 -12 16 -24 22 -28 8 -4 8 -1 0 14 -6 12 -16 24 -22 28 -8 4 -8 1 0 -14z"/>
 <path d="M6153 1778 c-20 -26 -26 -41 -15 -34 12 7 36 46 29 46 -3 0 -9 -6 -14 -12z"/>
 <path d="M6099 1704 c-13 -14 -17 -23 -9 -19 13 5 46 45 37 45 -2 0 -14 -11 -28 -26z"/>
 <path d="M1400 1674 c0 -5 14 -22 32 -39 21 -20 28 -23 21 -10 -14 25 -53 61 -53 49z"/>
 <path d="M1497 1556 c34 -49 282 -306 294 -306 5 0 -33 42 -85 93 -51 50 -125 128 -165 172 -40 44 -60 62 -44 41z"/>
 <path d="M5954 1518 c-57 -61 -86 -101 -39 -53 52 52 90 95 84 95 -3 0 -23 -19 -45 -42z"/>
 <path d="M5785 1340 c-16 -17 -24 -30 -19 -30 13 0 59 48 52 55 -2 3 -17 -9 -33 -25z"/>
 <path d="M5625 1190 c-10 -11 -13 -20 -8 -20 13 0 38 29 31 35 -3 3 -13 -4 -23 -15z"/>
 <path d="M5544 1124 l-39 -35 43 32 c38 30 48 39 39 39 -2 0 -21 -16 -43 -36z"/>
 <path d="M1920 1135 c0 -8 7 -15 16 -15 14 0 14 3 4 15 -7 8 -14 15 -16 15 -2 0 -4 -7 -4 -15z"/>
 <path d="M2032 1057 c10 -8 14 -18 10 -22 -4 -5 -2 -5 5 -1 6 3 14 2 18 -4 3 -5 16 -15 28 -20 16 -8 13 -4 -8 15 -16 14 -39 31 -50 36 -18 9 -19 9 -3 -4z"/>
 <path d="M5185 885 c-33 -19 -54 -35 -47 -35 14 0 48 16 66 32 6 5 20 15 31 23 34 25 12 16 -50 -20z"/>
 <path d="M2350 854 c0 -2 15 -11 33 -20 27 -14 30 -15 19 -2 -11 14 -52 31 -52 22z"/>
 <path d="M2505 775 c50 -25 97 -44 105 -44 13 1 13 1 0 6 -8 4 -52 23 -98 45 -113 52 -118 47 -7 -7z"/>
 <path d="M4933 760 c-30 -12 -29 -18 2 -12 14 2 25 8 25 13 0 5 -1 9 -2 8 -2 0 -13 -4 -25 -9z"/>
 <path d="M4835 715 c-16 -8 -23 -14 -14 -15 8 0 24 7 35 15 23 18 18 18 -21 0z"/>
 <path d="M2680 702 c8 -5 26 -13 40 -16 17 -5 20 -4 10 2 -8 5 -26 13 -40 16 -17 5 -20 4 -10 -2z"/>
 <path d="M2825 645 c17 -8 39 -14 50 -14 13 0 8 5 -15 14 -46 18 -74 17 -35 0z"/>
 <path d="M4625 640 c-13 -5 -14 -9 -5 -9 8 0 24 4 35 9 13 5 14 9 5 9 -8 0 -24 -4 -35 -9z"/>
 <path d="M3165 556 c16 -8 35 -11 43 -9 18 7 13 9 -33 16 l-40 6 30 -13z"/>
 <path d="M4270 556 c0 -2 11 -6 25 -8 14 -3 25 -1 25 3 0 5 -11 9 -25 9 -14 0 -25 -2 -25 -4z"/>
 <path d="M3293 533 c9 -2 25 -2 35 0 9 3 1 5 -18 5 -19 0 -27 -2 -17 -5z"/>
 <path d="M3443 513 c9 -2 25 -2 35 0 9 3 1 5 -18 5 -19 0 -27 -2 -17 -5z"/>
 <path d="M4023 513 c9 -2 25 -2 35 0 9 3 1 5 -18 5 -19 0 -27 -2 -17 -5z"/>
 <path d="M3588 503 c12 -2 32 -2 45 0 12 2 2 4 -23 4 -25 0 -35 -2 -22 -4z"/>
 <path d="M3868 503 c12 -2 30 -2 40 0 9 3 -1 5 -23 4 -22 0 -30 -2 -17 -4z"/>
 </g>
<g id="layer107" fill="#feffff" stroke="none">
 <path d="M3563 6343 c26 -2 67 -2 90 0 23 2 2 3 -48 3 -49 0 -68 -1 -42 -3z"/>
 <path d="M4460 6250 c34 -11 60 -11 35 0 -11 5 -29 8 -40 8 -16 0 -15 -2 5 -8z"/>
 <path d="M2645 6151 c-22 -11 -35 -19 -30 -19 14 -1 93 36 80 37 -5 0 -28 -8 -50 -18z"/>
 <path d="M4765 6156 c17 -8 32 -12 34 -10 7 7 -3 12 -34 18 l-30 6 30 -14z"/>
 <path d="M2540 6105 c-14 -8 -20 -14 -15 -14 6 0 21 6 35 14 14 8 21 14 15 14 -5 0 -21 -6 -35 -14z"/>
 <path d="M5001 6056 c2 -2 15 -9 29 -16 23 -12 24 -12 11 3 -7 10 -20 17 -29 17 -8 0 -13 -2 -11 -4z"/>
 <path d="M2338 6004 c-38 -20 -36 -28 2 -9 17 9 30 18 30 20 0 7 -1 6 -32 -11z"/>
 <path d="M2230 5944 c-19 -14 -37 -27 -40 -31 -9 -9 54 24 75 41 33 25 3 16 -35 -10z"/>
 <path d="M5290 5898 c21 -19 70 -48 70 -40 0 5 -12 15 -27 23 -36 17 -49 23 -43 17z"/>
 <path d="M5430 5806 c0 -2 14 -14 30 -26 17 -12 30 -19 30 -16 0 2 -13 14 -30 26 -16 12 -30 19 -30 16z"/>
 <path d="M5500 5757 c0 -2 19 -19 43 -37 23 -19 36 -26 28 -17 -15 19 -71 61 -71 54z"/>
 <path d="M5745 5543 c44 -44 82 -78 85 -75 3 2 -12 19 -33 38 -20 19 -37 37 -37 40 0 8 -27 34 -36 34 -4 0 -19 10 -33 22 -14 12 10 -15 54 -59z"/>
 <path d="M1745 5572 c-26 -22 -70 -72 -64 -72 3 0 25 20 49 45 44 45 52 59 15 27z"/>
 <path d="M5895 5390 c61 -62 87 -81 44 -33 -45 51 -88 93 -96 93 -4 0 19 -27 52 -60z"/>
 <path d="M1573 5398 c-24 -32 -24 -41 0 -19 15 14 27 26 27 28 0 8 -19 2 -27 -9z"/>
 <path d="M3565 5219 c-577 -45 -1007 -265 -1289 -658 -187 -261 -281 -573 -293 -973 -17 -566 143 -1008 493 -1364 304 -308 686 -475 1198 -524 333 -31 762 15 1084 118 l82 26 0 358 c0 197 -2 358 -5 358 -3 0 -33 -14 -66 -31 -169 -85 -348 -139 -564 -169 -183 -26 -515 -21 -627 9 -189 50 -352 145 -484 282 -91 95 -126 143 -176 244 -93 184 -121 322 -122 585 -1 246 26 396 100 557 82 180 232 344 390 425 175 90 275 111 519 110 188 0 267 -12 370 -52 l50 -20 -3 -328 c-2 -180 -6 -329 -9 -332 -2 -3 -152 -6 -331 -7 -180 -2 -330 -3 -334 -3 -5 0 -8 -137 -8 -305 l0 -305 730 0 730 0 0 854 0 855 -27 19 c-117 82 -415 184 -677 232 -208 37 -532 55 -731 39z"/>
 <path d="M6091 5176 c-7 -8 -8 -17 -3 -20 6 -3 13 1 16 10 9 23 2 28 -13 10z"/>
 <path d="M6150 5073 c13 -18 25 -33 27 -33 8 0 -17 38 -33 51 -11 9 -9 2 6 -18z"/>
 <path d="M1300 5040 c-12 -16 -19 -30 -16 -30 2 0 14 14 26 30 12 17 19 30 16 30 -2 0 -14 -13 -26 -30z"/>
 <path d="M6250 4923 c0 -5 7 -18 15 -29 13 -18 14 -18 8 4 -5 22 -23 41 -23 25z"/>
 <path d="M1148 4788 c-17 -27 -29 -58 -23 -58 3 0 14 18 25 40 22 43 21 54 -2 18z"/>
 <path d="M6417 4590 c9 -22 18 -39 19 -37 6 6 -19 77 -27 77 -4 0 0 -18 8 -40z"/>
 <path d="M1002 4465 c-7 -14 -12 -31 -12 -38 1 -7 7 3 16 22 17 39 13 54 -4 16z"/>
 <path d="M6500 4389 c1 -15 59 -181 60 -168 0 16 -46 159 -55 167 -3 3 -5 3 -5 1z"/>
 <path d="M942 4295 c-7 -14 -12 -34 -11 -43 0 -9 7 1 15 22 16 45 13 59 -4 21z"/>
 <path d="M6664 3405 c0 -66 1 -92 3 -57 2 34 2 88 0 120 -2 31 -3 3 -3 -63z"/>
 <path d="M6652 3160 c0 -19 2 -27 5 -17 2 9 2 25 0 35 -3 9 -5 1 -5 -18z"/>
 <path d="M6621 2930 c-1 -14 -4 -36 -6 -50 l-6 -25 11 25 c6 13 9 36 7 50 l-4 25 -2 -25z"/>
 <path d="M6601 2825 c-1 -11 -4 -31 -6 -45 l-6 -25 11 25 c6 13 9 33 7 45 -4 19 -4 19 -6 0z"/>
 <path d="M1041 2315 c0 -5 6 -21 14 -35 8 -14 14 -20 14 -15 0 6 -6 21 -14 35 -8 14 -14 21 -14 15z"/>
 <path d="M6432 2285 c-17 -37 -14 -45 4 -12 9 16 14 31 11 33 -2 2 -9 -7 -15 -21z"/>
 <path d="M6386 2184 c-35 -73 -29 -80 9 -9 15 30 26 57 24 60 -3 2 -17 -21 -33 -51z"/>
 <path d="M6330 2070 c-11 -22 -18 -40 -15 -40 2 0 14 18 25 40 11 22 18 40 15 40 -2 0 -14 -18 -25 -40z"/>
 <path d="M1180 2020 c11 -22 23 -40 25 -40 3 0 -4 18 -15 40 -11 22 -23 40 -25 40 -3 0 4 -18 15 -40z"/>
 <path d="M6270 1958 c-27 -50 -22 -48 14 5 14 20 22 37 18 37 -5 0 -19 -19 -32 -42z"/>
 <path d="M6207 1855 c-14 -25 -24 -45 -22 -45 7 0 57 81 53 85 -2 2 -16 -16 -31 -40z"/>
 <path d="M1400 1672 c0 -5 7 -15 15 -22 8 -7 15 -8 15 -2 0 5 -7 15 -15 22 -8 7 -15 8 -15 2z"/>
 <path d="M1494 1558 c34 -46 96 -112 96 -101 -1 4 -28 37 -62 73 -33 36 -49 48 -34 28z"/>
 <path d="M5974 1538 c-30 -34 -47 -58 -42 -58 3 0 19 18 37 40 34 43 38 55 5 18z"/>
 <path d="M1692 1345 c54 -54 99 -97 100 -95 2 3 -42 48 -97 100 l-100 95 97 -100z"/>
 <path d="M5785 1340 c-16 -17 -24 -30 -19 -30 13 0 59 48 52 55 -2 3 -17 -9 -33 -25z"/>
 <path d="M5625 1190 c-10 -11 -13 -20 -8 -20 13 0 38 29 31 35 -3 3 -13 -4 -23 -15z"/>
 <path d="M1920 1135 c0 -8 7 -15 16 -15 14 0 14 3 4 15 -7 8 -14 15 -16 15 -2 0 -4 -7 -4 -15z"/>
 <path d="M2044 1039 c-4 -7 -3 -9 4 -5 6 3 13 2 17 -4 7 -11 45 -33 45 -26 0 3 -13 14 -29 26 -21 14 -32 17 -37 9z"/>
 <path d="M5185 885 c-33 -19 -54 -35 -47 -35 14 0 48 16 66 32 6 5 20 15 31 23 34 25 12 16 -50 -20z"/>
 <path d="M2350 856 c0 -3 14 -12 30 -21 17 -9 30 -13 30 -11 0 3 -13 12 -30 21 -16 9 -30 13 -30 11z"/>
 <path d="M2450 800 c19 -11 40 -19 45 -19 6 0 -6 8 -25 19 -19 11 -39 19 -45 19 -5 0 6 -8 25 -19z"/>
 <path d="M2550 754 c0 -7 52 -25 57 -20 2 2 -10 8 -26 14 -17 6 -31 9 -31 6z"/>
 <path d="M4835 715 c-16 -8 -23 -14 -14 -15 8 0 24 7 35 15 23 18 18 18 -21 0z"/>
 <path d="M2825 645 c17 -8 37 -14 45 -14 8 0 -1 7 -20 14 -46 18 -64 17 -25 0z"/>
 <path d="M4625 640 c-13 -5 -14 -9 -5 -9 8 0 24 4 35 9 13 5 14 9 5 9 -8 0 -24 -4 -35 -9z"/>
 <path d="M3165 556 c17 -8 32 -12 34 -10 7 7 -3 12 -34 18 l-30 6 30 -14z"/>
 <path d="M3443 513 c9 -2 25 -2 35 0 9 3 1 5 -18 5 -19 0 -27 -2 -17 -5z"/>
 <path d="M4023 513 c9 -2 25 -2 35 0 9 3 1 5 -18 5 -19 0 -27 -2 -17 -5z"/>
 <path d="M3588 503 c12 -2 32 -2 45 0 12 2 2 4 -23 4 -25 0 -35 -2 -22 -4z"/>
 <path d="M3868 503 c12 -2 30 -2 40 0 9 3 -1 5 -23 4 -22 0 -30 -2 -17 -4z"/>
 </g>

</svg>